^C:\CS271\PROJECT_ASSIGNMENT02\DEBUG\PROGRAM02.OBJ
/OUT:"C:\CS271\PROJECT_ASSIGNMENT02\DEBUG\PROJECT.EXE" /NOLOGO /LIBPATH:C:\IRVINE USER32.LIB IRVINE32.LIB KERNEL32.LIB USER32.LIB GDI32.LIB WINSPOOL.LIB COMDLG32.LIB ADVAPI32.LIB SHELL32.LIB OLE32.LIB OLEAUT32.LIB UUID.LIB ODBC32.LIB ODBCCP32.LIB /MANIFEST /MANIFESTUAC:"level='asInvoker' uiAccess='false'" /manifest:embed /DEBUG /PDB:"C:\CS271\PROJECT_ASSIGNMENT02\DEBUG\PROJECT.PDB" /SUBSYSTEM:CONSOLE /TLBID:1 /DYNAMICBASE:NO /IMPLIB:"C:\CS271\PROJECT_ASSIGNMENT02\DEBUG\PROJECT.LIB" /MACHINE:X86 /SAFESEH:NO DEBUG\PROGRAM02.OBJ
^C:\CS271\PROJECT_ASSIGNMENT03\DEBUG\PROGRAM03.OBJ
/OUT:"C:\CS271\PROJECT_ASSIGNMENT03\DEBUG\PROJECT.EXE" /NOLOGO /LIBPATH:C:\IRVINE USER32.LIB IRVINE32.LIB KERNEL32.LIB USER32.LIB GDI32.LIB WINSPOOL.LIB COMDLG32.LIB ADVAPI32.LIB SHELL32.LIB OLE32.LIB OLEAUT32.LIB UUID.LIB ODBC32.LIB ODBCCP32.LIB /MANIFEST /MANIFESTUAC:"level='asInvoker' uiAccess='false'" /manifest:embed /DEBUG /PDB:"C:\CS271\PROJECT_ASSIGNMENT03\DEBUG\PROJECT.PDB" /SUBSYSTEM:CONSOLE /TLBID:1 /DYNAMICBASE:NO /IMPLIB:"C:\CS271\PROJECT_ASSIGNMENT03\DEBUG\PROJECT.LIB" /MACHINE:X86 /SAFESEH:NO DEBUG\PROGRAM03.OBJ
