^template.asm
C:\CS271\Project_Assignment02\Debug\template.obj
^template.asm
C:\CS271\Project_Assignment02\Debug\template.obj
^template.asm
C:\CS271\Project_Assignment02\Debug\template.obj
^template.asm
C:\CS271\Project_Assignment02\Debug\template.obj
^template.asm
C:\CS271\Project_Assignment02\Debug\template.obj
^template.asm
C:\CS271\Project_Assignment02\Debug\template.obj
^Program02.asm
C:\CS271\Project_Assignment02\Debug\Program02.obj
^Program02.asm
C:\CS271\Project_Assignment02\Debug\Program02.obj
^Program02.asm
C:\CS271\Project_Assignment02\Debug\Program02.obj
^Program02.asm
C:\CS271\Project_Assignment02\Debug\Program02.obj
^Program02.asm
C:\CS271\Project_Assignment02\Debug\Program02.obj
^Program02.asm
C:\CS271\Project_Assignment02\Debug\Program02.obj
^Program02.asm
C:\CS271\Project_Assignment02\Debug\Program02.obj
^Program02.asm
C:\CS271\Project_Assignment02\Debug\Program02.obj
^Program02.asm
C:\CS271\Project_Assignment02\Debug\Program02.obj
^Program02.asm
C:\CS271\Project_Assignment02\Debug\Program02.obj
^Program02.asm
C:\CS271\Project_Assignment02\Debug\Program02.obj
^Program02.asm
C:\CS271\Project_Assignment02\Debug\Program02.obj
^Program02.asm
C:\CS271\Project_Assignment02\Debug\Program02.obj
^Program02.asm
C:\CS271\Project_Assignment02\Debug\Program02.obj
^Program02.asm
C:\CS271\Project_Assignment02\Debug\Program02.obj
^Program02.asm
C:\CS271\Project_Assignment02\Debug\Program02.obj
^Program02.asm
C:\CS271\Project_Assignment02\Debug\Program02.obj
^Program02.asm
C:\CS271\Project_Assignment02\Debug\Program02.obj
^Program02.asm
C:\CS271\Project_Assignment02\Debug\Program02.obj
^Program02.asm
C:\CS271\Project_Assignment02\Debug\Program02.obj
^Program02.asm
C:\CS271\Project_Assignment02\Debug\Program02.obj
^Program02.asm
C:\CS271\Project_Assignment02\Debug\Program02.obj
^Program02.asm
C:\CS271\Project_Assignment02\Debug\Program02.obj
^Program02.asm
C:\CS271\Project_Assignment02\Debug\Program02.obj
^Program02.asm
C:\CS271\Project_Assignment02\Debug\Program02.obj
^Program02.asm
C:\CS271\Project_Assignment02\Debug\Program02.obj
^Program02.asm
C:\CS271\Project_Assignment02\Debug\Program02.obj
^Program02.asm
C:\CS271\Project_Assignment02\Debug\Program02.obj
^Program02.asm
C:\CS271\Project_Assignment02\Debug\Program02.obj
^Program02.asm
C:\CS271\Project_Assignment02\Debug\Program02.obj
^Program02.asm
C:\CS271\Project_Assignment02\Debug\Program02.obj
^Program02.asm
C:\CS271\Project_Assignment02\Debug\Program02.obj
^Program02.asm
C:\CS271\Project_Assignment02\Debug\Program02.obj
^Program02.asm
C:\CS271\Project_Assignment02\Debug\Program02.obj
^Program02.asm
C:\CS271\Project_Assignment02\Debug\Program02.obj
^Program02.asm
C:\CS271\Project_Assignment02\Debug\Program02.obj
^Program02.asm
C:\CS271\Project_Assignment02\Debug\Program02.obj
^Program02.asm
C:\CS271\Project_Assignment02\Debug\Program02.obj
^Program02.asm
C:\CS271\Project_Assignment02\Debug\Program02.obj
^Program02.asm
C:\CS271\Project_Assignment02\Debug\Program02.obj
^Program02.asm
C:\CS271\Project_Assignment02\Debug\Program02.obj
^Program02.asm
C:\CS271\Project_Assignment02\Debug\Program02.obj
^Program02.asm
C:\CS271\Project_Assignment02\Debug\Program02.obj
^Program02.asm
C:\CS271\Project_Assignment02\Debug\Program02.obj
^Program02.asm
C:\CS271\Project_Assignment02\Debug\Program02.obj
^Program02.asm
C:\CS271\Project_Assignment02\Debug\Program02.obj
^Program02.asm
C:\CS271\Project_Assignment02\Debug\Program02.obj
^Program02.asm
C:\CS271\Project_Assignment02\Debug\Program02.obj
^Program02.asm
C:\CS271\Project_Assignment02\Debug\Program02.obj
^Program02.asm
C:\CS271\Project_Assignment02\Debug\Program02.obj
^Program02.asm
C:\CS271\Project_Assignment02\Debug\Program02.obj
^Program02.asm
C:\CS271\Project_Assignment02\Debug\Program02.obj
^Program02.asm
C:\CS271\Project_Assignment02\Debug\Program02.obj
^Program02.asm
C:\CS271\Project_Assignment02\Debug\Program02.obj
^Program02.asm
C:\CS271\Project_Assignment02\Debug\Program02.obj
^Program02.asm
C:\CS271\Project_Assignment02\Debug\Program02.obj
^Program02.asm
C:\CS271\Project_Assignment02\Debug\Program02.obj
^Program02.asm
C:\CS271\Project_Assignment02\Debug\Program02.obj
^Program02.asm
C:\CS271\Project_Assignment02\Debug\Program02.obj
^Program02.asm
C:\CS271\Project_Assignment02\Debug\Program02.obj
^Program02.asm
C:\CS271\Project_Assignment02\Debug\Program02.obj
^Program02.asm
C:\CS271\Project_Assignment02\Debug\Program02.obj
^Program02.asm
C:\CS271\Project_Assignment02\Debug\Program02.obj
^Program02.asm
C:\CS271\Project_Assignment02\Debug\Program02.obj
^Program02.asm
C:\CS271\Project_Assignment02\Debug\Program02.obj
^Program02.asm
C:\CS271\Project_Assignment02\Debug\Program02.obj
^Program02.asm
C:\CS271\Project_Assignment02\Debug\Program02.obj
^Program02.asm
C:\CS271\Project_Assignment02\Debug\Program02.obj
^Program02.asm
C:\CS271\Project_Assignment02\Debug\Program02.obj
^Program02.asm
C:\CS271\Project_Assignment02\Debug\Program02.obj
^Program02.asm
C:\CS271\Project_Assignment02\Debug\Program02.obj
^Program02.asm
C:\CS271\Project_Assignment02\Debug\Program02.obj
^Program02.asm
C:\CS271\Project_Assignment02\Debug\Program02.obj
^Program02.asm
C:\CS271\Project_Assignment02\Debug\Program02.obj
^Program02.asm
C:\CS271\Project_Assignment02\Debug\Program02.obj
^Program02.asm
C:\CS271\Project_Assignment02\Debug\Program02.obj
^Program02.asm
C:\CS271\Project_Assignment02\Debug\Program02.obj
^Program02.asm
C:\CS271\Project_Assignment02\Debug\Program02.obj
^Program02.asm
C:\CS271\Project_Assignment02\Debug\Program02.obj
^Program02.asm
C:\CS271\Project_Assignment02\Debug\Program02.obj
^Program02.asm
C:\CS271\Project_Assignment02\Debug\Program02.obj
^Program02.asm
C:\CS271\Project_Assignment02\Debug\Program02.obj
^Program02.asm
C:\CS271\Project_Assignment02\Debug\Program02.obj
^Program02.asm
C:\CS271\Project_Assignment02\Debug\Program02.obj
^Program02.asm
C:\CS271\Project_Assignment02\Debug\Program02.obj
^Program02.asm
C:\CS271\Project_Assignment02\Debug\Program02.obj
^Program02.asm
C:\CS271\Project_Assignment02\Debug\Program02.obj
^Program03.asm
C:\CS271\Project_Assignment03\Debug\Program03.obj
^Program03.asm
C:\CS271\Project_Assignment03\Debug\Program03.obj
^Program03.asm
C:\CS271\Project_Assignment03\Debug\Program03.obj
^Program03.asm
C:\CS271\Project_Assignment03\Debug\Program03.obj
^Program03.asm
C:\CS271\Project_Assignment03\Debug\Program03.obj
^Program03.asm
C:\CS271\Project_Assignment03\Debug\Program03.obj
^Program03.asm
C:\CS271\Project_Assignment03\Debug\Program03.obj
^Program03.asm
C:\CS271\Project_Assignment03\Debug\Program03.obj
^Program03.asm
C:\CS271\Project_Assignment03\Debug\Program03.obj
^Program03.asm
C:\CS271\Project_Assignment03\Debug\Program03.obj
^Program03.asm
C:\CS271\Project_Assignment03\Debug\Program03.obj
^Program03.asm
C:\CS271\Project_Assignment03\Debug\Program03.obj
^Program03.asm
C:\CS271\Project_Assignment03\Debug\Program03.obj
^Program03.asm
C:\CS271\Project_Assignment03\Debug\Program03.obj
^Program03.asm
C:\CS271\Project_Assignment03\Debug\Program03.obj
^Program03.asm
C:\CS271\Project_Assignment03\Debug\Program03.obj
^Program03.asm
C:\CS271\Project_Assignment03\Debug\Program03.obj
^Program03.asm
C:\CS271\Project_Assignment03\Debug\Program03.obj
^Program03.asm
C:\CS271\Project_Assignment03\Debug\Program03.obj
^Program03.asm
C:\CS271\Project_Assignment03\Debug\Program03.obj
^Program03.asm
C:\CS271\Project_Assignment03\Debug\Program03.obj
^Program03.asm
C:\CS271\Project_Assignment03\Debug\Program03.obj
^Program03.asm
C:\CS271\Project_Assignment03\Debug\Program03.obj
^Program03.asm
C:\CS271\Project_Assignment03\Debug\Program03.obj
^Program03.asm
C:\CS271\Project_Assignment03\Debug\Program03.obj
^Program03.asm
C:\CS271\Project_Assignment03\Debug\Program03.obj
^Program03.asm
C:\CS271\Project_Assignment03\Debug\Program03.obj
^Program03.asm
C:\CS271\Project_Assignment03\Debug\Program03.obj
^Program03.asm
C:\CS271\Project_Assignment03\Debug\Program03.obj
^Program03.asm
C:\CS271\Project_Assignment03\Debug\Program03.obj
^Program03.asm
C:\CS271\Project_Assignment03\Debug\Program03.obj
^Program03.asm
C:\CS271\Project_Assignment03\Debug\Program03.obj
^Program03.asm
C:\CS271\Project_Assignment03\Debug\Program03.obj
^Program03.asm
C:\CS271\Project_Assignment03\Debug\Program03.obj
