Microsoft (R) Macro Assembler Version 14.00.24210.0	    11/04/16 00:49:15
)Programming Assignment #4 (Program04.asm		     Page 1 - 1


				TITLE Programming Assignment #4 (Program04.asm)

				; Author: Clifford Dunn
				; Course / Project ID  CS271 Computer Architecture & Assembly Language               Date: November 2, 2016
				; Description: Program #4: Composite Numbers 

				INCLUDE Irvine32.inc
			      C ; Include file for Irvine32.lib             (Irvine32.inc)
			      C 
			      C ;OPTION CASEMAP:NONE		; optional: make identifiers case-sensitive
			      C 
			      C INCLUDE SmallWin.inc		; MS-Windows prototypes, structures, and constants
			      C .NOLIST
			      C .LIST
			      C 
			      C INCLUDE VirtualKeys.inc
			      C ; VirtualKeys.inc
			      C .NOLIST
			      C .LIST
			      C 
			      C 
			      C .NOLIST
			      C .LIST
			      C 

				; Constant Definitions
 = 00000001				LOWER_LIMIT	= 1
 = 00000190				UPPER_LIMIT = 400

 = 00000018				MAX_NAME_LENGTH = 24

 00000000			.data

				; Textual Outputs Through the Program
 00000000 54 68 69 73 20		intro_01			BYTE	"This is the Composite Number Generator",0
	   69 73 20 74 68
	   65 20 43 6F 6D
	   70 6F 73 69 74
	   65 20 4E 75 6D
	   62 65 72 20 47
	   65 6E 65 72 61
	   74 6F 72 00
 00000027 50 72 6F 67 72		intro_02			BYTE	"Programmed by Clifford Dunn",0
	   61 6D 6D 65 64
	   20 62 79 20 43
	   6C 69 66 66 6F
	   72 64 20 44 75
	   6E 6E 00
 00000043 45 43 3A 20 4F		extra_credit		BYTE	"EC: Output columns are aligned!",0
	   75 74 70 75 74
	   20 63 6F 6C 75
	   6D 6E 73 20 61
	   72 65 20 61 6C
	   69 67 6E 65 64
	   21 00

 00000063 48 65 6C 6C 6F		greet_01			BYTE	"Hello! What's your name? ",0
	   21 20 57 68 61
	   74 27 73 20 79
	   6F 75 72 20 6E
	   61 6D 65 3F 20
	   00
 0000007D 48 65 6C 6C 6F		greet_02			BYTE	"Hello, ",0
	   2C 20 00

 00000085 48 6F 77 20 6D		prompt_01			BYTE	"How many composite numbers would you like to see?",0
	   61 6E 79 20 63
	   6F 6D 70 6F 73
	   69 74 65 20 6E
	   75 6D 62 65 72
	   73 20 77 6F 75
	   6C 64 20 79 6F
	   75 20 6C 69 6B
	   65 20 74 6F 20
	   73 65 65 3F 00
 000000B7 49 27 6C 6C 20		prompt_02			BYTE	"I'll accept orders for up to 400 composite numbers.",0
	   61 63 63 65 70
	   74 20 6F 72 64
	   65 72 73 20 66
	   6F 72 20 75 70
	   20 74 6F 20 34
	   30 30 20 63 6F
	   6D 70 6F 73 69
	   74 65 20 6E 75
	   6D 62 65 72 73
	   2E 00
 000000EB 45 6E 74 65 72		prompt_03			BYTE	"Enter the number of composites to display [1 .. 400]: ",0
	   20 74 68 65 20
	   6E 75 6D 62 65
	   72 20 6F 66 20
	   63 6F 6D 70 6F
	   73 69 74 65 73
	   20 74 6F 20 64
	   69 73 70 6C 61
	   79 20 5B 31 20
	   2E 2E 20 34 30
	   30 5D 3A 20 00

 00000122 4F 75 74 20 6F		error_01			BYTE	"Out of range. Please try again.",0
	   66 20 72 61 6E
	   67 65 2E 20 50
	   6C 65 61 73 65
	   20 74 72 79 20
	   61 67 61 69 6E
	   2E 00

 00000142 52 65 73 75 6C		goodbye_01			BYTE	"Results certified by Clifford Dunn",0
	   74 73 20 63 65
	   72 74 69 66 69
	   65 64 20 62 79
	   20 43 6C 69 66
	   66 6F 72 64 20
	   44 75 6E 6E 00
 00000165 47 6F 6F 64 62		goodbye_02			BYTE	"Goodbye, ",0
	   79 65 2C 20 00

 0000016F 20 20 20 20 20		five_spaces			BYTE	"     ",0
	   00
 00000175 20 20 20 20 00		four_spaces			BYTE	"    ",0
 0000017A 20 20 20 00			three_spaces		BYTE	"   ",0
				; Max Name Length is necessary to create a buffer for entering a name
 0000017E  00000018 [			user_Name			BYTE	MAX_NAME_LENGTH DUP(?)
	    00
	   ]

 00000196 00000000			num_composite		DWORD	?	; How many composite numbers should be displayed?
 0000019A 00000000			next_composite		DWORD	?	; The composite number to display next
 0000019E 00000000			num_outs			DWORD	0	; Number of output lines



				;-------------------------------------------------------------------------------------------------------------------
				;-------------------------------------------------------------------------------------------------------------------
				; Executing code
				;-------------------------------------------------------------------------------------------------------------------
				;-------------------------------------------------------------------------------------------------------------------
 00000000			.code

				;-------------------------------------------------------------------------------------------------------------------
				; Procedure Name: introduction. 
				; Description: This procedure outputs this title of the program and the author
				; Input: None.
				; Output: Outputs the title and programmer name
				;-------------------------------------------------------------------------------------------------------------------
 00000000			introduction PROC

 00000000  BA 00000000 R		mov					edx, OFFSET intro_01
 00000005  E8 00000000 E		call				WriteString				
 0000000A  E8 00000000 E		call				CrLf
 0000000F  BA 00000027 R		mov					edx, OFFSET intro_02
 00000014  E8 00000000 E		call				WriteString
 00000019  E8 00000000 E		call				CrLf
 0000001E  BA 00000043 R		mov					edx, OFFSET extra_credit
 00000023  E8 00000000 E		call				WriteString
 00000028  E8 00000000 E		call				CrLf
 0000002D  E8 00000000 E		call				CrLf
 00000032  C3				ret

 00000033			introduction ENDP


				;-------------------------------------------------------------------------------------------------------------------
				; Procedure Name: getUserName
				; Description: This procedure receives the user's name and greets them.
				; Input: User must enter a name.
				; Output: Standard greeting to the user
				;-------------------------------------------------------------------------------------------------------------------
 00000033			getUserName PROC
 00000033  BA 00000063 R		mov					edx, OFFSET greet_01
 00000038  E8 00000000 E		call				WriteString
 0000003D  BA 0000017E R		mov					edx, OFFSET user_Name		; Create a space for the user name
 00000042  B9 00000018			mov					ecx, MAX_NAME_LENGTH		; Enter the user name
 00000047  E8 00000000 E		call				ReadString
 0000004C  E8 00000000 E		call				CrLf
 00000051  BA 0000007D R		mov					edx, OFFSET greet_02
 00000056  E8 00000000 E		call				WriteString
 0000005B  BA 0000017E R		mov					edx, OFFSET user_Name
 00000060  E8 00000000 E		call				WriteString
 00000065  E8 00000000 E		call				CrLf
 0000006A  C3				ret
 0000006B			getUserName ENDP



				;-------------------------------------------------------------------------------------------------------------------
				; Procedure Name: getUserData
				; Description: This procedure asks for the desired amount of composite numbers.
				; Input: User must enter a number in the range of [1 .. 400].
				; Output: Displays a prompt asking for numbers. Calls the validation procedure to make sure num_composite is valid.
				;-------------------------------------------------------------------------------------------------------------------
 0000006B			getUserData PROC
 0000006B  BA 00000085 R		mov					edx, OFFSET prompt_01		; Display the initial instruction for the user
 00000070  E8 00000000 E		call				WriteString
 00000075  E8 00000000 E		call				CrLf
 0000007A  BA 000000B7 R		mov					edx, OFFSET prompt_02		; Further instruction
 0000007F  E8 00000000 E		call				WriteString
 00000084  E8 00000000 E		call				CrLf
 00000089  BA 000000EB R		mov					edx, OFFSET prompt_03		; Further instruction
 0000008E  E8 00000000 E		call				WriteString
 00000093  E8 00000000 E		call				ReadInt
 00000098  A3 00000196 R		mov					num_composite, eax
 0000009D  E8 00000000 E		call				CrLf
 000000A2  E8 000000D1			call				validation
 000000A7  C3				ret
 000000A8			getUserData ENDP



				;-------------------------------------------------------------------------------------------------------------------
				; Procedure Name: spaceOrJump
				; Description: This procedure determines the proper spacing and changes the output.
				; Input: Looks at both the num_outs variable and next_composite variable.
				; Output: Changes the number of spaces between numbers depending on their size or adds a new line.
				;-------------------------------------------------------------------------------------------------------------------
 000000A8			spaceOrJump PROC
 000000A8  FF 05 0000019E R		inc					num_outs					; Accumulator for starting new lines when necessary
 000000AE  A1 0000019E R		mov					eax, num_outs
 000000B3  83 F8 0A			cmp					eax, 10						; When the accumulator reaches ten, it will jump to addLine.
 000000B6  74 51			je					addLine

					; Jump to addFiveSpaces if the number is single digit
 000000B8  83 3D 0000019A R		cmp					next_composite, 10
	   0A
 000000BF  72 15			jb					addFiveSpaces
					; Jump to addFourSpaces if the number is double digit
 000000C1  83 3D 0000019A R		cmp					next_composite, 100
	   64
 000000C8  72 1D			jb					addFourSpaces
					; Jump to addThreeSpaces if the number is double digit
 000000CA  81 3D 0000019A R		cmp					next_composite, 1000
	   000003E8
 000000D4  72 22			jb					addThreeSpaces

				; Adds five spaces after each number
 000000D6			addFiveSpaces:
 000000D6  FF 05 0000019A R		inc					next_composite				; Increase the next_composite variable in order to test for new composite
 000000DC  BA 0000016F R		mov					edx, OFFSET five_spaces
 000000E1  E8 00000000 E		call				WriteString
 000000E6  C3				ret

				; Adds four spaces after each number
 000000E7			addFourSpaces:
 000000E7  FF 05 0000019A R		inc					next_composite				; Increase the next_composite variable in order to test for new composite
 000000ED  BA 00000175 R		mov					edx, OFFSET four_spaces
 000000F2  E8 00000000 E		call				WriteString
 000000F7  C3				ret

				; Adds three spaces after each number
 000000F8			addThreeSpaces:
 000000F8  FF 05 0000019A R		inc					next_composite				; Increase the next_composite variable in order to test for new composite
 000000FE  BA 0000017A R		mov					edx, OFFSET three_spaces
 00000103  E8 00000000 E		call				WriteString
 00000108  C3				ret

				; Create a new line
 00000109			addLine:
 00000109  FF 05 0000019A R		inc					next_composite				; Increase the next_composite variable in order to test for new composite
 0000010F  B8 00000000			mov					eax, 0
 00000114  A3 0000019E R		mov					num_outs, eax				; Resets the accumulator to 0 for future line counting
 00000119  E8 00000000 E		call				CrLf
 0000011E  C3				ret
 0000011F			spaceOrJump ENDP



				;-------------------------------------------------------------------------------------------------------------------
				; Procedure Name: showComposites 
				; Description: This procedure outputs the number of composite numbers desired.
				; Input: None.
				; Output: List of composite numbers
				;-------------------------------------------------------------------------------------------------------------------
 0000011F			showComposites PROC
 0000011F  8B 0D 00000196 R		mov					ecx, num_composite			; Moves the desired number of composites into the loop counter
 00000125  B8 00000004			mov					eax, 4						; Sets the first register to 4 which is the first composite
 0000012A  A3 0000019A R		mov					next_composite, eax			; Sets the next_composite variable to 4
 0000012F  BB 00000002			mov					ebx, 2						; Used to perform division on potential composites

 00000134			mainLoop:
 00000134  E8 0000001B			call				isComposite

					; Once the next composite is found, display it.
 00000139  A1 0000019A R		mov					eax, next_composite
 0000013E  E8 00000000 E		call				WriteDec
					
					; Determine the proper spacing for the output.	
 00000143  E8 FFFFFF60			call				spaceOrJump

					; Proceed on through the loop
 00000148  A1 0000019A R		mov					eax, next_composite			; Place the next_composite variable in the proper register
 0000014D  BB 00000002			mov					ebx, 2						; Prepare the ebx register for comparison to next_composite
 00000152  E2 E0			loop				mainLoop					; Go back to the beginning of the loop process
 00000154			showComposites ENDP



				;-------------------------------------------------------------------------------------------------------------------
				; Procedure Name: isComposite	 
				; Description: Determines if the following number is composite.
				; Input: None.
				; Output: List of composite numbers
				;-------------------------------------------------------------------------------------------------------------------
 00000154			isComposite PROC
 00000154			compositeTest:
 00000154  3B C3			cmp					eax, ebx					; Check if the next_composite and the potential divisor are the same
 00000156  74 13			je					noComposite					; If they are, jump ahead to noComposite

 00000158  99				cdq												; Convert double to quad. Makes the division work
 00000159  F7 F3			div					ebx							
 0000015B  83 FA 00			cmp					edx, 0						; Check if the values divide evenly and there is no remainder
 0000015E  74 02			je					posComposite				; If the values divide, the number is composite
 00000160  75 01			jne					negComposite				; If they don't, jump ahead
					
 00000162			posComposite:
 00000162  C3				ret												; The number is composite and the procedure will end

 00000163			negComposite:
 00000163  A1 0000019A R		mov					eax, next_composite			 
 00000168  43				inc					ebx							; Increases the value of the number to divide into next_composite
 00000169  EB E9			jmp					compositeTest				; Start the process over to find a composite number

				; The original next_composite value turned out to be a prime number
 0000016B			noComposite:
 0000016B  FF 05 0000019A R		inc					next_composite				; Increase the value of next_composite				
 00000171  BB 00000002			mov					ebx, 2						; Restart the increasing divisors
 00000176  EB DC			jmp					compositeTest				; Jump back to the beginning of the composite test
 00000178			isComposite ENDP



				;-------------------------------------------------------------------------------------------------------------------
				; Procedure Name: validation 
				; Description: This procedure checks the num_composite variable and make sure it falls within the desired range.
				; Input: Looks at the number that was initially entered.
				; Output: Either continues with the program or reprompts the user if the number is out of range.
				;-------------------------------------------------------------------------------------------------------------------
 00000178			validation PROC
					; Determines if the entered number is lower than 1 or greater than 400.
 00000178  83 F8 01			cmp					eax, LOWER_LIMIT
 0000017B  7C 08			jl					outOfRange
 0000017D  3D 00000190			cmp					eax, UPPER_LIMIT
 00000182  7F 01			jg					outOfRange
 00000184  C3				ret

				; Procedure jumps here if the desired number of composites is out of range
 00000185			outOfRange:
 00000185  BA 00000122 R		mov					edx, OFFSET error_01
 0000018A  E8 00000000 E		call				WriteString
 0000018F  E8 00000000 E		call				CrLf
 00000194  E9 FFFFFED2			jmp					getUserData		; Sends the user back to reenter their desired number of composites.
 00000199			validation ENDP



				;--------------------------------------------------------------------------------------------------------------
				; Procedure Name: farewell
				; Description: This procedure issues a farewell to the user.
				; Input: None.
				; Output: Standard farewell to the user.
				;--------------------------------------------------------------------------------------------------------------
 00000199			farewell PROC
 00000199  E8 00000000 E		call				CrLf
 0000019E  BA 00000142 R		mov					edx, OFFSET goodbye_01
 000001A3  E8 00000000 E		call				WriteString
 000001A8  E8 00000000 E		call				CrLf
 000001AD  E8 00000000 E		call				CrLf
 000001B2  BA 00000165 R		mov					edx, OFFSET goodbye_02
 000001B7  E8 00000000 E		call				WriteString
 000001BC  BA 0000017E R		mov					edx, OFFSET user_Name
 000001C1  E8 00000000 E		call				WriteString
 000001C6  E8 00000000 E		call				CrLf
 000001CB  C3				ret
 000001CC			farewell ENDP






				;--------------------------------------------------------------------------------------------------------------
				; Procedure Name: main
				; Description: This is the main procedure.
				; Input: None.
				; Output: A script type procedure that calls the other procedures as necessary..
				;--------------------------------------------------------------------------------------------------------------
 000001CC			main PROC

					; Introduction. Displays the title and programmer's name.
 000001CC  E8 FFFFFE2F			call				introduction		

					; Prompts for the user's name.	
 000001D1  E8 FFFFFE5D			call				getUserName

					; Asks the user how many composite numbers to display.	
 000001D6  E8 FFFFFE90			call				getUserData

					; Performes the calculations and displays the composite numbers
 000001DB  E8 FFFFFF3F			call				showComposites

					; Bids farewell to the user before exiting the program.	
 000001E0  E8 FFFFFFB4			call				farewell

					exit	; exit to operating system
 000001E5  6A 00	   *	    push   +000000000h
 000001E7  E8 00000000 E   *	    call   ExitProcess
 000001EC			main ENDP


				END main
Microsoft (R) Macro Assembler Version 14.00.24210.0	    11/04/16 00:49:15
)Programming Assignment #4 (Program04.asm		     Symbols 2 - 1




Structures and Unions:

                N a m e                  Size
                                         Offset      Type

CONSOLE_CURSOR_INFO  . . . . . .	 00000008
  dwSize . . . . . . . . . . . .	 00000000	 DWord
  bVisible . . . . . . . . . . .	 00000004	 DWord
CONSOLE_SCREEN_BUFFER_INFO . . .	 00000016
  dwSize . . . . . . . . . . . .	 00000000	 DWord
  dwCursorPosition . . . . . . .	 00000004	 DWord
  wAttributes  . . . . . . . . .	 00000008	 Word
  srWindow . . . . . . . . . . .	 0000000A	 QWord
  dwMaximumWindowSize  . . . . .	 00000012	 DWord
COORD  . . . . . . . . . . . . .	 00000004
  X  . . . . . . . . . . . . . .	 00000000	 Word
  Y  . . . . . . . . . . . . . .	 00000002	 Word
FILETIME . . . . . . . . . . . .	 00000008
  loDateTime . . . . . . . . . .	 00000000	 DWord
  hiDateTime . . . . . . . . . .	 00000004	 DWord
FOCUS_EVENT_RECORD . . . . . . .	 00000004
  bSetFocus  . . . . . . . . . .	 00000000	 DWord
FPU_ENVIRON  . . . . . . . . . .	 0000001C
  controlWord  . . . . . . . . .	 00000000	 Word
  statusWord . . . . . . . . . .	 00000004	 Word
  tagWord  . . . . . . . . . . .	 00000008	 Word
  instrPointerOffset . . . . . .	 0000000C	 DWord
  instrPointerSelector . . . . .	 00000010	 DWord
  operandPointerOffset . . . . .	 00000014	 DWord
  operandPointerSelector . . . .	 00000018	 Word
INPUT_RECORD . . . . . . . . . .	 00000014
  EventType  . . . . . . . . . .	 00000000	 Word
  Event  . . . . . . . . . . . .	 00000004	 XmmWord
  bKeyDown . . . . . . . . . . .	 00000000	 DWord
  wRepeatCount . . . . . . . . .	 00000004	 Word
  wVirtualKeyCode  . . . . . . .	 00000006	 Word
  wVirtualScanCode . . . . . . .	 00000008	 Word
  uChar  . . . . . . . . . . . .	 0000000A	 Word
  UnicodeChar  . . . . . . . . .	 00000000	 Word
  AsciiChar  . . . . . . . . . .	 00000000	 Byte
  dwControlKeyState  . . . . . .	 0000000C	 DWord
  dwMousePosition  . . . . . . .	 00000000	 DWord
  dwButtonState  . . . . . . . .	 00000004	 DWord
  dwMouseControlKeyState . . . .	 00000008	 DWord
  dwEventFlags . . . . . . . . .	 0000000C	 DWord
  dwSize . . . . . . . . . . . .	 00000000	 DWord
  dwCommandId  . . . . . . . . .	 00000000	 DWord
  bSetFocus  . . . . . . . . . .	 00000000	 DWord
KEY_EVENT_RECORD . . . . . . . .	 00000010
  bKeyDown . . . . . . . . . . .	 00000000	 DWord
  wRepeatCount . . . . . . . . .	 00000004	 Word
  wVirtualKeyCode  . . . . . . .	 00000006	 Word
  wVirtualScanCode . . . . . . .	 00000008	 Word
  uChar  . . . . . . . . . . . .	 0000000A	 Word
  UnicodeChar  . . . . . . . . .	 00000000	 Word
  AsciiChar  . . . . . . . . . .	 00000000	 Byte
  dwControlKeyState  . . . . . .	 0000000C	 DWord
MENU_EVENT_RECORD  . . . . . . .	 00000004
  dwCommandId  . . . . . . . . .	 00000000	 DWord
MOUSE_EVENT_RECORD . . . . . . .	 00000010
  dwMousePosition  . . . . . . .	 00000000	 DWord
  dwButtonState  . . . . . . . .	 00000004	 DWord
  dwMouseControlKeyState . . . .	 00000008	 DWord
  dwEventFlags . . . . . . . . .	 0000000C	 DWord
SMALL_RECT . . . . . . . . . . .	 00000008
  Left . . . . . . . . . . . . .	 00000000	 Word
  Top  . . . . . . . . . . . . .	 00000002	 Word
  Right  . . . . . . . . . . . .	 00000004	 Word
  Bottom . . . . . . . . . . . .	 00000006	 Word
SYSTEMTIME . . . . . . . . . . .	 00000010
  wYear  . . . . . . . . . . . .	 00000000	 Word
  wMonth . . . . . . . . . . . .	 00000002	 Word
  wDayOfWeek . . . . . . . . . .	 00000004	 Word
  wDay . . . . . . . . . . . . .	 00000006	 Word
  wHour  . . . . . . . . . . . .	 00000008	 Word
  wMinute  . . . . . . . . . . .	 0000000A	 Word
  wSecond  . . . . . . . . . . .	 0000000C	 Word
  wMilliseconds  . . . . . . . .	 0000000E	 Word
WINDOW_BUFFER_SIZE_RECORD  . . .	 00000004
  dwSize . . . . . . . . . . . .	 00000000	 DWord


Segments and Groups:

                N a m e                 Size     Length   Align   Combine Class

FLAT . . . . . . . . . . . . . .	GROUP
STACK  . . . . . . . . . . . . .	32 Bit	 00001000 Para	  Stack	  'STACK'	 
_DATA  . . . . . . . . . . . . .	32 Bit	 000001A2 Para	  Public  'DATA'	
_TEXT  . . . . . . . . . . . . .	32 Bit	 000001EC Para	  Public  'CODE'	


Procedures, parameters, and locals:

                N a m e                 Type     Value    Attr

CloseFile  . . . . . . . . . . .	P Near	 00000000 FLAT	Length= 00000000 External STDCALL
CloseHandle  . . . . . . . . . .	P Near	 00000000 FLAT	Length= 00000000 External STDCALL
Clrscr . . . . . . . . . . . . .	P Near	 00000000 FLAT	Length= 00000000 External STDCALL
CreateFileA  . . . . . . . . . .	P Near	 00000000 FLAT	Length= 00000000 External STDCALL
CreateOutputFile . . . . . . . .	P Near	 00000000 FLAT	Length= 00000000 External STDCALL
Crlf . . . . . . . . . . . . . .	P Near	 00000000 FLAT	Length= 00000000 External STDCALL
Delay  . . . . . . . . . . . . .	P Near	 00000000 FLAT	Length= 00000000 External STDCALL
DumpMem  . . . . . . . . . . . .	P Near	 00000000 FLAT	Length= 00000000 External STDCALL
DumpRegs . . . . . . . . . . . .	P Near	 00000000 FLAT	Length= 00000000 External STDCALL
ExitProcess  . . . . . . . . . .	P Near	 00000000 FLAT	Length= 00000000 External STDCALL
FileTimeToDosDateTime  . . . . .	P Near	 00000000 FLAT	Length= 00000000 External STDCALL
FileTimeToSystemTime . . . . . .	P Near	 00000000 FLAT	Length= 00000000 External STDCALL
FlushConsoleInputBuffer  . . . .	P Near	 00000000 FLAT	Length= 00000000 External STDCALL
FormatMessageA . . . . . . . . .	P Near	 00000000 FLAT	Length= 00000000 External STDCALL
GetCommandLineA  . . . . . . . .	P Near	 00000000 FLAT	Length= 00000000 External STDCALL
GetCommandTail . . . . . . . . .	P Near	 00000000 FLAT	Length= 00000000 External STDCALL
GetConsoleCP . . . . . . . . . .	P Near	 00000000 FLAT	Length= 00000000 External STDCALL
GetConsoleCursorInfo . . . . . .	P Near	 00000000 FLAT	Length= 00000000 External STDCALL
GetConsoleMode . . . . . . . . .	P Near	 00000000 FLAT	Length= 00000000 External STDCALL
GetConsoleScreenBufferInfo . . .	P Near	 00000000 FLAT	Length= 00000000 External STDCALL
GetDateTime  . . . . . . . . . .	P Near	 00000000 FLAT	Length= 00000000 External STDCALL
GetFileTime  . . . . . . . . . .	P Near	 00000000 FLAT	Length= 00000000 External STDCALL
GetKeyState  . . . . . . . . . .	P Near	 00000000 FLAT	Length= 00000000 External STDCALL
GetLastError . . . . . . . . . .	P Near	 00000000 FLAT	Length= 00000000 External STDCALL
GetLocalTime . . . . . . . . . .	P Near	 00000000 FLAT	Length= 00000000 External STDCALL
GetMaxXY . . . . . . . . . . . .	P Near	 00000000 FLAT	Length= 00000000 External STDCALL
GetMseconds  . . . . . . . . . .	P Near	 00000000 FLAT	Length= 00000000 External STDCALL
GetNumberOfConsoleInputEvents  .	P Near	 00000000 FLAT	Length= 00000000 External STDCALL
GetProcessHeap . . . . . . . . .	P Near	 00000000 FLAT	Length= 00000000 External STDCALL
GetStdHandle . . . . . . . . . .	P Near	 00000000 FLAT	Length= 00000000 External STDCALL
GetSystemTime  . . . . . . . . .	P Near	 00000000 FLAT	Length= 00000000 External STDCALL
GetTextColor . . . . . . . . . .	P Near	 00000000 FLAT	Length= 00000000 External STDCALL
GetTickCount . . . . . . . . . .	P Near	 00000000 FLAT	Length= 00000000 External STDCALL
Gotoxy . . . . . . . . . . . . .	P Near	 00000000 FLAT	Length= 00000000 External STDCALL
HeapAlloc  . . . . . . . . . . .	P Near	 00000000 FLAT	Length= 00000000 External STDCALL
HeapCreate . . . . . . . . . . .	P Near	 00000000 FLAT	Length= 00000000 External STDCALL
HeapDestroy  . . . . . . . . . .	P Near	 00000000 FLAT	Length= 00000000 External STDCALL
HeapFree . . . . . . . . . . . .	P Near	 00000000 FLAT	Length= 00000000 External STDCALL
HeapSize . . . . . . . . . . . .	P Near	 00000000 FLAT	Length= 00000000 External STDCALL
IsDigit  . . . . . . . . . . . .	P Near	 00000000 FLAT	Length= 00000000 External STDCALL
LocalFree  . . . . . . . . . . .	P Near	 00000000 FLAT	Length= 00000000 External STDCALL
MessageBoxA  . . . . . . . . . .	P Near	 00000000 FLAT	Length= 00000000 External STDCALL
MsgBoxAsk  . . . . . . . . . . .	P Near	 00000000 FLAT	Length= 00000000 External STDCALL
MsgBox . . . . . . . . . . . . .	P Near	 00000000 FLAT	Length= 00000000 External STDCALL
OpenInputFile  . . . . . . . . .	P Near	 00000000 FLAT	Length= 00000000 External STDCALL
ParseDecimal32 . . . . . . . . .	P Near	 00000000 FLAT	Length= 00000000 External STDCALL
ParseInteger32 . . . . . . . . .	P Near	 00000000 FLAT	Length= 00000000 External STDCALL
PeekConsoleInputA  . . . . . . .	P Near	 00000000 FLAT	Length= 00000000 External STDCALL
Random32 . . . . . . . . . . . .	P Near	 00000000 FLAT	Length= 00000000 External STDCALL
RandomRange  . . . . . . . . . .	P Near	 00000000 FLAT	Length= 00000000 External STDCALL
Randomize  . . . . . . . . . . .	P Near	 00000000 FLAT	Length= 00000000 External STDCALL
ReadChar . . . . . . . . . . . .	P Near	 00000000 FLAT	Length= 00000000 External STDCALL
ReadConsoleA . . . . . . . . . .	P Near	 00000000 FLAT	Length= 00000000 External STDCALL
ReadConsoleInputA  . . . . . . .	P Near	 00000000 FLAT	Length= 00000000 External STDCALL
ReadDec  . . . . . . . . . . . .	P Near	 00000000 FLAT	Length= 00000000 External STDCALL
ReadFile . . . . . . . . . . . .	P Near	 00000000 FLAT	Length= 00000000 External STDCALL
ReadFloat  . . . . . . . . . . .	P Near	 00000000 FLAT	Length= 00000000 External STDCALL
ReadFromFile . . . . . . . . . .	P Near	 00000000 FLAT	Length= 00000000 External STDCALL
ReadHex  . . . . . . . . . . . .	P Near	 00000000 FLAT	Length= 00000000 External STDCALL
ReadInt  . . . . . . . . . . . .	P Near	 00000000 FLAT	Length= 00000000 External STDCALL
ReadKeyFlush . . . . . . . . . .	P Near	 00000000 FLAT	Length= 00000000 External STDCALL
ReadKey  . . . . . . . . . . . .	P Near	 00000000 FLAT	Length= 00000000 External STDCALL
ReadString . . . . . . . . . . .	P Near	 00000000 FLAT	Length= 00000000 External STDCALL
SetConsoleCursorInfo . . . . . .	P Near	 00000000 FLAT	Length= 00000000 External STDCALL
SetConsoleCursorPosition . . . .	P Near	 00000000 FLAT	Length= 00000000 External STDCALL
SetConsoleMode . . . . . . . . .	P Near	 00000000 FLAT	Length= 00000000 External STDCALL
SetConsoleScreenBufferSize . . .	P Near	 00000000 FLAT	Length= 00000000 External STDCALL
SetConsoleTextAttribute  . . . .	P Near	 00000000 FLAT	Length= 00000000 External STDCALL
SetConsoleTitleA . . . . . . . .	P Near	 00000000 FLAT	Length= 00000000 External STDCALL
SetConsoleWindowInfo . . . . . .	P Near	 00000000 FLAT	Length= 00000000 External STDCALL
SetFilePointer . . . . . . . . .	P Near	 00000000 FLAT	Length= 00000000 External STDCALL
SetLocalTime . . . . . . . . . .	P Near	 00000000 FLAT	Length= 00000000 External STDCALL
SetTextColor . . . . . . . . . .	P Near	 00000000 FLAT	Length= 00000000 External STDCALL
ShowFPUStack . . . . . . . . . .	P Near	 00000000 FLAT	Length= 00000000 External STDCALL
Sleep  . . . . . . . . . . . . .	P Near	 00000000 FLAT	Length= 00000000 External STDCALL
StrLength  . . . . . . . . . . .	P Near	 00000000 FLAT	Length= 00000000 External STDCALL
Str_compare  . . . . . . . . . .	P Near	 00000000 FLAT	Length= 00000000 External STDCALL
Str_copy . . . . . . . . . . . .	P Near	 00000000 FLAT	Length= 00000000 External STDCALL
Str_length . . . . . . . . . . .	P Near	 00000000 FLAT	Length= 00000000 External STDCALL
Str_trim . . . . . . . . . . . .	P Near	 00000000 FLAT	Length= 00000000 External STDCALL
Str_ucase  . . . . . . . . . . .	P Near	 00000000 FLAT	Length= 00000000 External STDCALL
SystemTimeToFileTime . . . . . .	P Near	 00000000 FLAT	Length= 00000000 External STDCALL
WaitMsg  . . . . . . . . . . . .	P Near	 00000000 FLAT	Length= 00000000 External STDCALL
WriteBinB  . . . . . . . . . . .	P Near	 00000000 FLAT	Length= 00000000 External STDCALL
WriteBin . . . . . . . . . . . .	P Near	 00000000 FLAT	Length= 00000000 External STDCALL
WriteChar  . . . . . . . . . . .	P Near	 00000000 FLAT	Length= 00000000 External STDCALL
WriteConsoleA  . . . . . . . . .	P Near	 00000000 FLAT	Length= 00000000 External STDCALL
WriteConsoleOutputAttribute  . .	P Near	 00000000 FLAT	Length= 00000000 External STDCALL
WriteConsoleOutputCharacterA . .	P Near	 00000000 FLAT	Length= 00000000 External STDCALL
WriteDec . . . . . . . . . . . .	P Near	 00000000 FLAT	Length= 00000000 External STDCALL
WriteFile  . . . . . . . . . . .	P Near	 00000000 FLAT	Length= 00000000 External STDCALL
WriteFloat . . . . . . . . . . .	P Near	 00000000 FLAT	Length= 00000000 External STDCALL
WriteHexB  . . . . . . . . . . .	P Near	 00000000 FLAT	Length= 00000000 External STDCALL
WriteHex . . . . . . . . . . . .	P Near	 00000000 FLAT	Length= 00000000 External STDCALL
WriteInt . . . . . . . . . . . .	P Near	 00000000 FLAT	Length= 00000000 External STDCALL
WriteStackFrameName  . . . . . .	P Near	 00000000 FLAT	Length= 00000000 External STDCALL
WriteStackFrame  . . . . . . . .	P Near	 00000000 FLAT	Length= 00000000 External STDCALL
WriteString  . . . . . . . . . .	P Near	 00000000 FLAT	Length= 00000000 External STDCALL
WriteToFile  . . . . . . . . . .	P Near	 00000000 FLAT	Length= 00000000 External STDCALL
WriteWindowsMsg  . . . . . . . .	P Near	 00000000 FLAT	Length= 00000000 External STDCALL
farewell . . . . . . . . . . . .	P Near	 00000199 _TEXT	Length= 00000033 Public STDCALL
getUserData  . . . . . . . . . .	P Near	 0000006B _TEXT	Length= 0000003D Public STDCALL
getUserName  . . . . . . . . . .	P Near	 00000033 _TEXT	Length= 00000038 Public STDCALL
introduction . . . . . . . . . .	P Near	 00000000 _TEXT	Length= 00000033 Public STDCALL
isComposite  . . . . . . . . . .	P Near	 00000154 _TEXT	Length= 00000024 Public STDCALL
  compositeTest  . . . . . . . .	L Near	 00000154 _TEXT	
  posComposite . . . . . . . . .	L Near	 00000162 _TEXT	
  negComposite . . . . . . . . .	L Near	 00000163 _TEXT	
  noComposite  . . . . . . . . .	L Near	 0000016B _TEXT	
main . . . . . . . . . . . . . .	P Near	 000001CC _TEXT	Length= 00000020 Public STDCALL
printf . . . . . . . . . . . . .	P Near	 00000000 FLAT	Length= 00000000 External C
scanf  . . . . . . . . . . . . .	P Near	 00000000 FLAT	Length= 00000000 External C
showComposites . . . . . . . . .	P Near	 0000011F _TEXT	Length= 00000035 Public STDCALL
  mainLoop . . . . . . . . . . .	L Near	 00000134 _TEXT	
spaceOrJump  . . . . . . . . . .	P Near	 000000A8 _TEXT	Length= 00000077 Public STDCALL
  addFiveSpaces  . . . . . . . .	L Near	 000000D6 _TEXT	
  addFourSpaces  . . . . . . . .	L Near	 000000E7 _TEXT	
  addThreeSpaces . . . . . . . .	L Near	 000000F8 _TEXT	
  addLine  . . . . . . . . . . .	L Near	 00000109 _TEXT	
validation . . . . . . . . . . .	P Near	 00000178 _TEXT	Length= 00000021 Public STDCALL
  outOfRange . . . . . . . . . .	L Near	 00000185 _TEXT	
wsprintfA  . . . . . . . . . . .	P Near	 00000000 FLAT	Length= 00000000 External C


Symbols:

                N a m e                 Type     Value    Attr

@CodeSize  . . . . . . . . . . .	Number	 00000000h   
@DataSize  . . . . . . . . . . .	Number	 00000000h   
@Interface . . . . . . . . . . .	Number	 00000003h   
@Model . . . . . . . . . . . . .	Number	 00000007h   
@code  . . . . . . . . . . . . .	Text   	 _TEXT
@data  . . . . . . . . . . . . .	Text   	 FLAT
@fardata?  . . . . . . . . . . .	Text   	 FLAT
@fardata . . . . . . . . . . . .	Text   	 FLAT
@stack . . . . . . . . . . . . .	Text   	 FLAT
ALT_MASK . . . . . . . . . . . .	Number	 00000003h   
CAPSLOCK_ON  . . . . . . . . . .	Number	 00000080h   
CREATE_ALWAYS  . . . . . . . . .	Number	 00000002h   
CREATE_NEW . . . . . . . . . . .	Number	 00000001h   
CTRL_MASK  . . . . . . . . . . .	Number	 0000000Ch   
CreateFile . . . . . . . . . . .	Text   	 CreateFileA
DO_NOT_SHARE . . . . . . . . . .	Number	 00000000h   
ENABLE_ECHO_INPUT  . . . . . . .	Number	 00000004h   
ENABLE_LINE_INPUT  . . . . . . .	Number	 00000002h   
ENABLE_MOUSE_INPUT . . . . . . .	Number	 00000010h   
ENABLE_PROCESSED_INPUT . . . . .	Number	 00000001h   
ENABLE_PROCESSED_OUTPUT  . . . .	Number	 00000001h   
ENABLE_WINDOW_INPUT  . . . . . .	Number	 00000008h   
ENABLE_WRAP_AT_EOL_OUTPUT  . . .	Number	 00000002h   
ENHANCED_KEY . . . . . . . . . .	Number	 00000100h   
FALSE  . . . . . . . . . . . . .	Number	 00000000h   
FILE_APPEND_DATA . . . . . . . .	Number	 00000004h   
FILE_ATTRIBUTE_ARCHIVE . . . . .	Number	 00000020h   
FILE_ATTRIBUTE_COMPRESSED  . . .	Number	 00000800h   
FILE_ATTRIBUTE_DEVICE  . . . . .	Number	 00000040h   
FILE_ATTRIBUTE_DIRECTORY . . . .	Number	 00000010h   
FILE_ATTRIBUTE_ENCRYPTED . . . .	Number	 00004000h   
FILE_ATTRIBUTE_HIDDEN  . . . . .	Number	 00000002h   
FILE_ATTRIBUTE_NORMAL  . . . . .	Number	 00000080h   
FILE_ATTRIBUTE_NOT_CONTENT_INDEXED .	Number	 00002000h   
FILE_ATTRIBUTE_OFFLINE . . . . .	Number	 00001000h   
FILE_ATTRIBUTE_READONLY  . . . .	Number	 00000001h   
FILE_ATTRIBUTE_REPARSE_POINT . .	Number	 00000400h   
FILE_ATTRIBUTE_SPARSE_FILE . . .	Number	 00000200h   
FILE_ATTRIBUTE_SYSTEM  . . . . .	Number	 00000004h   
FILE_ATTRIBUTE_TEMPORARY . . . .	Number	 00000100h   
FILE_BEGIN . . . . . . . . . . .	Number	 00000000h   
FILE_CURRENT . . . . . . . . . .	Number	 00000001h   
FILE_DELETE_CHILD  . . . . . . .	Number	 00000040h   
FILE_END . . . . . . . . . . . .	Number	 00000002h   
FILE_READ_DATA . . . . . . . . .	Number	 00000001h   
FILE_SHARE_DELETE  . . . . . . .	Number	 00000004h   
FILE_SHARE_READ  . . . . . . . .	Number	 00000001h   
FILE_SHARE_WRITE . . . . . . . .	Number	 00000002h   
FILE_WRITE_DATA  . . . . . . . .	Number	 00000002h   
FOCUS_EVENT  . . . . . . . . . .	Number	 00000010h   
FORMAT_MESSAGE_ALLOCATE_BUFFER .	Number	 00000100h   
FORMAT_MESSAGE_FROM_SYSTEM . . .	Number	 00001000h   
FormatMessage  . . . . . . . . .	Text   	 FormatMessageA
GENERIC_ALL  . . . . . . . . . .	Number	 10000000h   
GENERIC_EXECUTE  . . . . . . . .	Number	 20000000h   
GENERIC_READ . . . . . . . . . .	Number	 -80000000h   
GENERIC_WRITE  . . . . . . . . .	Number	 40000000h   
GetCommandLine . . . . . . . . .	Text   	 GetCommandLineA
HANDLE . . . . . . . . . . . . .	Text   	 DWORD
HEAP_GENERATE_EXCEPTIONS . . . .	Number	 00000004h   
HEAP_GROWABLE  . . . . . . . . .	Number	 00000002h   
HEAP_NO_SERIALIZE  . . . . . . .	Number	 00000001h   
HEAP_REALLOC_IN_PLACE_ONLY . . .	Number	 00000010h   
HEAP_ZERO_MEMORY . . . . . . . .	Number	 00000008h   
IDABORT  . . . . . . . . . . . .	Number	 00000003h   
IDCANCEL . . . . . . . . . . . .	Number	 00000002h   
IDCLOSE  . . . . . . . . . . . .	Number	 00000008h   
IDCONTINUE . . . . . . . . . . .	Number	 0000000Bh   
IDHELP . . . . . . . . . . . . .	Number	 00000009h   
IDIGNORE . . . . . . . . . . . .	Number	 00000005h   
IDNO . . . . . . . . . . . . . .	Number	 00000007h   
IDOK . . . . . . . . . . . . . .	Number	 00000001h   
IDRETRY  . . . . . . . . . . . .	Number	 00000004h   
IDTIMEOUT  . . . . . . . . . . .	Number	 00007D00h   
IDTRYAGAIN . . . . . . . . . . .	Number	 0000000Ah   
IDYES  . . . . . . . . . . . . .	Number	 00000006h   
INVALID_HANDLE_VALUE . . . . . .	Number	 -00000001h   
KBDOWN_FLAG  . . . . . . . . . .	Number	 00000001h   
KEY_EVENT  . . . . . . . . . . .	Number	 00000001h   
KEY_MASKS  . . . . . . . . . . .	Number	 0000001Fh   
LEFT_ALT_PRESSED . . . . . . . .	Number	 00000002h   
LEFT_CTRL_PRESSED  . . . . . . .	Number	 00000008h   
LOWER_LIMIT  . . . . . . . . . .	Number	 00000001h   
MAX_NAME_LENGTH  . . . . . . . .	Number	 00000018h   
MB_ABORTRETRYIGNORE  . . . . . .	Number	 00000002h   
MB_APPLMODAL . . . . . . . . . .	Number	 00000000h   
MB_CANCELTRYCONTINUE . . . . . .	Number	 00000006h   
MB_DEFBUTTON1  . . . . . . . . .	Number	 00000000h   
MB_DEFBUTTON2  . . . . . . . . .	Number	 00000100h   
MB_DEFBUTTON3  . . . . . . . . .	Number	 00000200h   
MB_DEFBUTTON4  . . . . . . . . .	Number	 00000300h   
MB_HELP  . . . . . . . . . . . .	Number	 00004000h   
MB_ICONASTERISK  . . . . . . . .	Number	 00000040h   
MB_ICONERROR . . . . . . . . . .	Number	 00000010h   
MB_ICONEXCLAMATION . . . . . . .	Number	 00000030h   
MB_ICONHAND  . . . . . . . . . .	Number	 00000010h   
MB_ICONINFORMATION . . . . . . .	Number	 00000040h   
MB_ICONQUESTION  . . . . . . . .	Number	 00000020h   
MB_ICONSTOP  . . . . . . . . . .	Number	 00000010h   
MB_ICONWARNING . . . . . . . . .	Number	 00000030h   
MB_OKCANCEL  . . . . . . . . . .	Number	 00000001h   
MB_OK  . . . . . . . . . . . . .	Number	 00000000h   
MB_RETRYCANCEL . . . . . . . . .	Number	 00000005h   
MB_SYSTEMMODAL . . . . . . . . .	Number	 00001000h   
MB_TASKMODAL . . . . . . . . . .	Number	 00002000h   
MB_USERICON  . . . . . . . . . .	Number	 00000080h   
MB_YESNOCANCEL . . . . . . . . .	Number	 00000003h   
MB_YESNO . . . . . . . . . . . .	Number	 00000004h   
MENU_EVENT . . . . . . . . . . .	Number	 00000008h   
MOUSE_EVENT  . . . . . . . . . .	Number	 00000002h   
MessageBox . . . . . . . . . . .	Text   	 MessageBoxA
NULL . . . . . . . . . . . . . .	Number	 00000000h   
NUMLOCK_ON . . . . . . . . . . .	Number	 00000020h   
OPEN_ALWAYS  . . . . . . . . . .	Number	 00000004h   
OPEN_EXISTING  . . . . . . . . .	Number	 00000003h   
PeekConsoleInput . . . . . . . .	Text   	 PeekConsoleInputA
RIGHT_ALT_PRESSED  . . . . . . .	Number	 00000001h   
RIGHT_CTRL_PRESSED . . . . . . .	Number	 00000004h   
ReadConsoleInput . . . . . . . .	Text   	 ReadConsoleInputA
ReadConsole  . . . . . . . . . .	Text   	 ReadConsoleA
SCROLLLOCK_ON  . . . . . . . . .	Number	 00000040h   
SHIFT_MASK . . . . . . . . . . .	Number	 00000010h   
SHIFT_PRESSED  . . . . . . . . .	Number	 00000010h   
STD_ERROR_HANDLE . . . . . . . .	Number	 -0000000Ch   
STD_INPUT_HANDLE . . . . . . . .	Number	 -0000000Ah   
STD_OUTPUT_HANDLE  . . . . . . .	Number	 -0000000Bh   
SetConsoleTitle  . . . . . . . .	Text   	 SetConsoleTitleA
TAB  . . . . . . . . . . . . . .	Number	 00000009h   
TRUE . . . . . . . . . . . . . .	Number	 00000001h   
TRUNCATE_EXISTING  . . . . . . .	Number	 00000005h   
UPPER_LIMIT  . . . . . . . . . .	Number	 00000190h   
VK_11  . . . . . . . . . . . . .	Number	 000000BDh   
VK_12  . . . . . . . . . . . . .	Number	 000000BBh   
VK_ADD . . . . . . . . . . . . .	Number	 0000006Bh   
VK_BACK  . . . . . . . . . . . .	Number	 00000008h   
VK_CANCEL  . . . . . . . . . . .	Number	 00000003h   
VK_CAPITAL . . . . . . . . . . .	Number	 00000014h   
VK_CLEAR . . . . . . . . . . . .	Number	 0000000Ch   
VK_CONTROL . . . . . . . . . . .	Number	 00000011h   
VK_DECIMAL . . . . . . . . . . .	Number	 0000006Eh   
VK_DELETE  . . . . . . . . . . .	Number	 0000002Eh   
VK_DIVIDE  . . . . . . . . . . .	Number	 0000006Fh   
VK_DOWN  . . . . . . . . . . . .	Number	 00000028h   
VK_END . . . . . . . . . . . . .	Number	 00000023h   
VK_ESCAPE  . . . . . . . . . . .	Number	 0000001Bh   
VK_EXECUTE . . . . . . . . . . .	Number	 0000002Bh   
VK_F10 . . . . . . . . . . . . .	Number	 00000079h   
VK_F11 . . . . . . . . . . . . .	Number	 0000007Ah   
VK_F12 . . . . . . . . . . . . .	Number	 0000007Bh   
VK_F13 . . . . . . . . . . . . .	Number	 0000007Ch   
VK_F14 . . . . . . . . . . . . .	Number	 0000007Dh   
VK_F15 . . . . . . . . . . . . .	Number	 0000007Eh   
VK_F16 . . . . . . . . . . . . .	Number	 0000007Fh   
VK_F17 . . . . . . . . . . . . .	Number	 00000080h   
VK_F18 . . . . . . . . . . . . .	Number	 00000081h   
VK_F19 . . . . . . . . . . . . .	Number	 00000082h   
VK_F1  . . . . . . . . . . . . .	Number	 00000070h   
VK_F20 . . . . . . . . . . . . .	Number	 00000083h   
VK_F21 . . . . . . . . . . . . .	Number	 00000084h   
VK_F22 . . . . . . . . . . . . .	Number	 00000085h   
VK_F23 . . . . . . . . . . . . .	Number	 00000086h   
VK_F24 . . . . . . . . . . . . .	Number	 00000087h   
VK_F2  . . . . . . . . . . . . .	Number	 00000071h   
VK_F3  . . . . . . . . . . . . .	Number	 00000072h   
VK_F4  . . . . . . . . . . . . .	Number	 00000073h   
VK_F5  . . . . . . . . . . . . .	Number	 00000074h   
VK_F6  . . . . . . . . . . . . .	Number	 00000075h   
VK_F7  . . . . . . . . . . . . .	Number	 00000076h   
VK_F8  . . . . . . . . . . . . .	Number	 00000077h   
VK_F9  . . . . . . . . . . . . .	Number	 00000078h   
VK_HELP  . . . . . . . . . . . .	Number	 0000002Fh   
VK_HOME  . . . . . . . . . . . .	Number	 00000024h   
VK_INSERT  . . . . . . . . . . .	Number	 0000002Dh   
VK_LBUTTON . . . . . . . . . . .	Number	 00000001h   
VK_LCONTROL  . . . . . . . . . .	Number	 000000A2h   
VK_LEFT  . . . . . . . . . . . .	Number	 00000025h   
VK_LMENU . . . . . . . . . . . .	Number	 000000A4h   
VK_LSHIFT  . . . . . . . . . . .	Number	 000000A0h   
VK_MENU  . . . . . . . . . . . .	Number	 00000012h   
VK_MULTIPLY  . . . . . . . . . .	Number	 0000006Ah   
VK_NEXT  . . . . . . . . . . . .	Number	 00000022h   
VK_NUMLOCK . . . . . . . . . . .	Number	 00000090h   
VK_NUMPAD0 . . . . . . . . . . .	Number	 00000060h   
VK_NUMPAD1 . . . . . . . . . . .	Number	 00000061h   
VK_NUMPAD2 . . . . . . . . . . .	Number	 00000062h   
VK_NUMPAD3 . . . . . . . . . . .	Number	 00000063h   
VK_NUMPAD4 . . . . . . . . . . .	Number	 00000064h   
VK_NUMPAD5 . . . . . . . . . . .	Number	 00000065h   
VK_NUMPAD6 . . . . . . . . . . .	Number	 00000066h   
VK_NUMPAD7 . . . . . . . . . . .	Number	 00000067h   
VK_NUMPAD8 . . . . . . . . . . .	Number	 00000068h   
VK_NUMPAD9 . . . . . . . . . . .	Number	 00000069h   
VK_PAUSE . . . . . . . . . . . .	Number	 00000013h   
VK_PRINT . . . . . . . . . . . .	Number	 0000002Ah   
VK_PRIOR . . . . . . . . . . . .	Number	 00000021h   
VK_RBUTTON . . . . . . . . . . .	Number	 00000002h   
VK_RCONTROL  . . . . . . . . . .	Number	 000000A3h   
VK_RETURN  . . . . . . . . . . .	Number	 0000000Dh   
VK_RIGHT . . . . . . . . . . . .	Number	 00000027h   
VK_RMENU . . . . . . . . . . . .	Number	 000000A5h   
VK_RSHIFT  . . . . . . . . . . .	Number	 000000A1h   
VK_SCROLL  . . . . . . . . . . .	Number	 00000091h   
VK_SEPARATER . . . . . . . . . .	Number	 0000006Ch   
VK_SHIFT . . . . . . . . . . . .	Number	 00000010h   
VK_SNAPSHOT  . . . . . . . . . .	Number	 0000002Ch   
VK_SPACE . . . . . . . . . . . .	Number	 00000020h   
VK_SUBTRACT  . . . . . . . . . .	Number	 0000006Dh   
VK_TAB . . . . . . . . . . . . .	Number	 00000009h   
VK_UP  . . . . . . . . . . . . .	Number	 00000026h   
WINDOW_BUFFER_SIZE_EVENT . . . .	Number	 00000004h   
WriteConsoleOutputCharacter  . .	Text   	 WriteConsoleOutputCharacterA
WriteConsole . . . . . . . . . .	Text   	 WriteConsoleA
black  . . . . . . . . . . . . .	Number	 00000000h   
blue . . . . . . . . . . . . . .	Number	 00000001h   
brown  . . . . . . . . . . . . .	Number	 00000006h   
cyan . . . . . . . . . . . . . .	Number	 00000003h   
error_01 . . . . . . . . . . . .	Byte	 00000122 _DATA	
exit . . . . . . . . . . . . . .	Text   	 INVOKE ExitProcess,0
extra_credit . . . . . . . . . .	Byte	 00000043 _DATA	
five_spaces  . . . . . . . . . .	Byte	 0000016F _DATA	
four_spaces  . . . . . . . . . .	Byte	 00000175 _DATA	
goodbye_01 . . . . . . . . . . .	Byte	 00000142 _DATA	
goodbye_02 . . . . . . . . . . .	Byte	 00000165 _DATA	
gray . . . . . . . . . . . . . .	Number	 00000008h   
green  . . . . . . . . . . . . .	Number	 00000002h   
greet_01 . . . . . . . . . . . .	Byte	 00000063 _DATA	
greet_02 . . . . . . . . . . . .	Byte	 0000007D _DATA	
intro_01 . . . . . . . . . . . .	Byte	 00000000 _DATA	
intro_02 . . . . . . . . . . . .	Byte	 00000027 _DATA	
lightBlue  . . . . . . . . . . .	Number	 00000009h   
lightCyan  . . . . . . . . . . .	Number	 0000000Bh   
lightGray  . . . . . . . . . . .	Number	 00000007h   
lightGreen . . . . . . . . . . .	Number	 0000000Ah   
lightMagenta . . . . . . . . . .	Number	 0000000Dh   
lightRed . . . . . . . . . . . .	Number	 0000000Ch   
magenta  . . . . . . . . . . . .	Number	 00000005h   
next_composite . . . . . . . . .	DWord	 0000019A _DATA	
num_composite  . . . . . . . . .	DWord	 00000196 _DATA	
num_outs . . . . . . . . . . . .	DWord	 0000019E _DATA	
prompt_01  . . . . . . . . . . .	Byte	 00000085 _DATA	
prompt_02  . . . . . . . . . . .	Byte	 000000B7 _DATA	
prompt_03  . . . . . . . . . . .	Byte	 000000EB _DATA	
red  . . . . . . . . . . . . . .	Number	 00000004h   
three_spaces . . . . . . . . . .	Byte	 0000017A _DATA	
user_Name  . . . . . . . . . . .	Byte	 0000017E _DATA	
white  . . . . . . . . . . . . .	Number	 0000000Fh   
wsprintf . . . . . . . . . . . .	Text   	 wsprintfA
yellow . . . . . . . . . . . . .	Number	 0000000Eh   

	   0 Warnings
	   0 Errors
