Microsoft (R) Macro Assembler Version 14.10.25019.0	    05/05/17 16:04:31
)Programming Assignment #6 (Program06.asm		     Page 1 - 1


				TITLE Programming Assignment #6 (Program06.asm)

				; Author: Clifford Dunn - dunncli@oregonstate.edu
				; Course / Project ID  CS271 Computer Architecture & Assembly Language               Due Date: December 4, 2016
				; Description: Program #6: Low Level I/O Procedures 

				INCLUDE Irvine32.inc
			      C ; Include file for Irvine32.lib             (Irvine32.inc)
			      C 
			      C ;OPTION CASEMAP:NONE		; optional: make identifiers case-sensitive
			      C 
			      C INCLUDE SmallWin.inc		; MS-Windows prototypes, structures, and constants
			      C .NOLIST
			      C .LIST
			      C 
			      C INCLUDE VirtualKeys.inc
			      C ; VirtualKeys.inc
			      C .NOLIST
			      C .LIST
			      C 
			      C 
			      C .NOLIST
			      C .LIST
			      C 

				; Constant Definitions

 = 0000000A				ARRAY_SIZE = 10
 = 00000018				MAX_NAME_LENGTH = 24

				;--------------------------------------------------------------------------------------------------------------
				; Macro	Name: stackFrame
				; Description: This is the standard  
				; Input: None.
				; Output: Basic procedure to set up a procedure stack
				;--------------------------------------------------------------------------------------------------------------
				stackFrame MACRO
					
					push				ebp
					mov					ebp, esp

				ENDM



				;--------------------------------------------------------------------------------------------------------------
				; Macro Name: getString 
				; Description: This macro reads an incoming string.
				; Input: Address to read, length of the address.
				; Output: String is stored.
				;--------------------------------------------------------------------------------------------------------------
				getString			MACRO addr, length
					
					push				edx
					push				ecx
					mov					edx, addr
					mov					ecx, length
					call				ReadString
					pop					ecx
					pop					edx

				ENDM



				;--------------------------------------------------------------------------------------------------------------
				; Macro Name: displayString
				; Description: This macro displays a string.
				; Input: a String.
				; Output: Displays the string.
				;--------------------------------------------------------------------------------------------------------------
				displayString		MACRO string

					push				edx
					mov					edx, string
					call				WriteString
					pop					edx

				ENDM


 00000000			.data

				; Textual Outputs Through the Program
 00000000 54 68 69 73 20		intro_01			BYTE	"This Program Demonstrates Low Level I/O Procedures",0
	   50 72 6F 67 72
	   61 6D 20 44 65
	   6D 6F 6E 73 74
	   72 61 74 65 73
	   20 4C 6F 77 20
	   4C 65 76 65 6C
	   20 49 2F 4F 20
	   50 72 6F 63 65
	   64 75 72 65 73
	   00
 00000033 50 72 6F 67 72		intro_02			BYTE	"Programmed by Clifford Dunn",0
	   61 6D 6D 65 64
	   20 62 79 20 43
	   6C 69 66 66 6F
	   72 64 20 44 75
	   6E 6E 00

 0000004F 2A 2A 45 43 3A		extra_credit		BYTE	"**EC: Each valid line is numbered and a running sum is displayed.",0
	   20 45 61 63 68
	   20 76 61 6C 69
	   64 20 6C 69 6E
	   65 20 69 73 20
	   6E 75 6D 62 65
	   72 65 64 20 61
	   6E 64 20 61 20
	   72 75 6E 6E 69
	   6E 67 20 73 75
	   6D 20 69 73 20
	   64 69 73 70 6C
	   61 79 65 64 2E
	   00

 00000091 48 65 6C 6C 6F		greet_01			BYTE	"Hello! What's your name? ",0
	   21 20 57 68 61
	   74 27 73 20 79
	   6F 75 72 20 6E
	   61 6D 65 3F 20
	   00
 000000AB 48 65 6C 6C 6F		greet_02			BYTE	"Hello, ",0
	   2C 20 00

 000000B3 50 6C 65 61 73		prompt_01			BYTE	"Please provide 10 unsigned integers.",0
	   65 20 70 72 6F
	   76 69 64 65 20
	   31 30 20 75 6E
	   73 69 67 6E 65
	   64 20 69 6E 74
	   65 67 65 72 73
	   2E 00
 000000D8 45 61 63 68 20		prompt_02			BYTE	"Each number must fit inside of a 32 bit register.",0
	   6E 75 6D 62 65
	   72 20 6D 75 73
	   74 20 66 69 74
	   20 69 6E 73 69
	   64 65 20 6F 66
	   20 61 20 33 32
	   20 62 69 74 20
	   72 65 67 69 73
	   74 65 72 2E 00
 0000010A 45 6E 74 65 72		prompt_03			BYTE	"Enter an unsigned integer: ",0
	   20 61 6E 20 75
	   6E 73 69 67 6E
	   65 64 20 69 6E
	   74 65 67 65 72
	   3A 20 00

 00000126 49 6E 70 75 74		error_01			BYTE	"Input is invalid. Please try again. ",0
	   20 69 73 20 69
	   6E 76 61 6C 69
	   64 2E 20 50 6C
	   65 61 73 65 20
	   74 72 79 20 61
	   67 61 69 6E 2E
	   20 00

 0000014B 54 68 65 20 6E		result_01			BYTE	"The numbers you entered are: ",0
	   75 6D 62 65 72
	   73 20 79 6F 75
	   20 65 6E 74 65
	   72 65 64 20 61
	   72 65 3A 20 00
 00000169 54 68 65 20 73		result_02			BYTE	"The sum of all the numbers is: ",0
	   75 6D 20 6F 66
	   20 61 6C 6C 20
	   74 68 65 20 6E
	   75 6D 62 65 72
	   73 20 69 73 3A
	   20 00
 00000189 54 68 65 20 61		result_03			BYTE	"The average of all the numbers is: ",0
	   76 65 72 61 67
	   65 20 6F 66 20
	   61 6C 6C 20 74
	   68 65 20 6E 75
	   6D 62 65 72 73
	   20 69 73 3A 20
	   00


 000001AD 52 65 73 75 6C		goodbye_01			BYTE	"Results certified by Clifford Dunn",0
	   74 73 20 63 65
	   72 74 69 66 69
	   65 64 20 62 79
	   20 43 6C 69 66
	   66 6F 72 64 20
	   44 75 6E 6E 00
 000001D0 47 6F 6F 64 62		goodbye_02			BYTE	"Goodbye, ",0
	   79 65 2C 20 00

 000001DA 2E 20 20 20 20		period_spaces		BYTE	".     ",0
	   20 00

 000001E1 54 68 65 20 63		temp_sum			BYTE	"The current sum is: ",0
	   75 72 72 65 6E
	   74 20 73 75 6D
	   20 69 73 3A 20
	   00
					
 000001F6  000000FF [			input_buf			BYTE	255 DUP(0)
	    00
	   ]
 000002F5  00000020 [			string_buf			BYTE	32 DUP(0)
	    00
	   ]

 00000315 00000000			sum					DWORD	?
 00000319 00000000			avg					DWORD	0
 0000031D  0000000A [			num_array			DWORD	10 DUP(0)
	    00000000
	   ]

				; Max Name Length is necessary to create a buffer for entering a name
 00000345  00000018 [			user_Name			BYTE	MAX_NAME_LENGTH DUP(?)
	    00
	   ]

				;-------------------------------------------------------------------------------------------------------------------
				;-------------------------------------------------------------------------------------------------------------------
				; Executing code
				;-------------------------------------------------------------------------------------------------------------------
				;-------------------------------------------------------------------------------------------------------------------
 00000000			.code

				;-------------------------------------------------------------------------------------------------------------------
				; Procedure Name: introduction. 
				; Description: This procedure outputs this title of the program and the author
				; Input: None.
				; Output: Outputs the title and programmer name
				;-------------------------------------------------------------------------------------------------------------------
 00000000			introduction PROC
					; Notes: ebp+12 = intro_01; ebp+8 = intro_02
					STACKFRAME
 00000000  55		     1		push				ebp
 00000001  8B EC	     1		mov					ebp, esp

					displayString		[ebp+12]						; intro_01: Title
 00000003  52		     1		push				edx
 00000004  8B 55 0C	     1		mov					edx, [ebp+12]
 00000007  E8 00000000 E     1		call				WriteString
 0000000C  5A		     1		pop					edx
 0000000D  E8 00000000 E		call				CrLf
					displayString		[ebp+8]							; intro_02: Programmer Name
 00000012  52		     1		push				edx
 00000013  8B 55 08	     1		mov					edx, [ebp+8]
 00000016  E8 00000000 E     1		call				WriteString
 0000001B  5A		     1		pop					edx
 0000001C  E8 00000000 E		call				CrLf
					displayString		[ebp+16]
 00000021  52		     1		push				edx
 00000022  8B 55 10	     1		mov					edx, [ebp+16]
 00000025  E8 00000000 E     1		call				WriteString
 0000002A  5A		     1		pop					edx
 0000002B  E8 00000000 E		call				CrLf
 00000030  E8 00000000 E		call				CrLf
 00000035  5D				pop					ebp
 00000036  C2 000C			ret					12
 00000039			introduction ENDP


				;-------------------------------------------------------------------------------------------------------------------
				; Procedure Name: getUserName
				; Description: This procedure receives the user's name and greets them.
				; Input: User must enter a name.
				; Output: Standard greeting to the user
				;-------------------------------------------------------------------------------------------------------------------
 00000039			getUserName PROC
					; NOTES: ebp+20 = greet_01; ebp+16 = user_Name; ebp+12 = MAX_NAME_LENGTH; ebp+8 = greet_02
					STACKFRAME
 00000039  55		     1		push				ebp
 0000003A  8B EC	     1		mov					ebp, esp

					displayString		[ebp+20]
 0000003C  52		     1		push				edx
 0000003D  8B 55 14	     1		mov					edx, [ebp+20]
 00000040  E8 00000000 E     1		call				WriteString
 00000045  5A		     1		pop					edx
 00000046  E8 00000000 E		call				CrLf
					getString			[ebp+16], [ebp+12]
 0000004B  52		     1		push				edx
 0000004C  51		     1		push				ecx
 0000004D  8B 55 10	     1		mov					edx, [ebp+16]
 00000050  8B 4D 0C	     1		mov					ecx, [ebp+12]
 00000053  E8 00000000 E     1		call				ReadString
 00000058  59		     1		pop					ecx
 00000059  5A		     1		pop					edx
 0000005A  E8 00000000 E		call				CrLf
					displayString		[ebp+8]
 0000005F  52		     1		push				edx
 00000060  8B 55 08	     1		mov					edx, [ebp+8]
 00000063  E8 00000000 E     1		call				WriteString
 00000068  5A		     1		pop					edx
					displayString		[ebp+16]
 00000069  52		     1		push				edx
 0000006A  8B 55 10	     1		mov					edx, [ebp+16]
 0000006D  E8 00000000 E     1		call				WriteString
 00000072  5A		     1		pop					edx
 00000073  E8 00000000 E		call				CrLf
 00000078  5D				pop					ebp
 00000079  C2 0010			ret					16
 0000007C			getUserName ENDP




				;-------------------------------------------------------------------------------------------------------------------
				; Procedure Name: inputLoop 
				; Description: This procedure takes 10 unsigned integer inputs and stores them in an array.
				; Input: Variable for temp_sum, multiple string outputs, input and string buffers, array to fill.
				; Output: A complete array will be filled and returned
				;-------------------------------------------------------------------------------------------------------------------
 0000007C			inputLoop PROC
					; NOTES: ebp+48 = temp_sum;
					; NOTES: ebp+44 = period_spaces; ebp+40 = prompt_01; ebp+36 = prompt_02; ebp+32 = prompt_03; ebp+28 = error_01;
					; NOTES: ebp+24 = input_buf; ebp+20 = sizeof input_buf; ebp+16 = string_buf; ebp+12 = num_array; ebp+8 = sum
					STACKFRAME
 0000007C  55		     1		push				ebp
 0000007D  8B EC	     1		mov					ebp, esp
 0000007F  60				pushad

 00000080  B9 0000000A			mov					ecx, 10								; Set the loop counter
 00000085  BB 00000001			mov					ebx, 1								; Set the accumulator (EC)
 0000008A  8B 7D 0C			mov					edi, [ebp+12]						; Place the array into the edi register
					displayString		[ebp+40]							; Print first prompt
 0000008D  52		     1		push				edx
 0000008E  8B 55 28	     1		mov					edx, [ebp+40]
 00000091  E8 00000000 E     1		call				WriteString
 00000096  5A		     1		pop					edx
 00000097  E8 00000000 E		call				CrLf
					displayString		[ebp+36]							; Print second prompt
 0000009C  52		     1		push				edx
 0000009D  8B 55 24	     1		mov					edx, [ebp+36]
 000000A0  E8 00000000 E     1		call				WriteString
 000000A5  5A		     1		pop					edx
 000000A6  E8 00000000 E		call				CrLf

 000000AB			gather:
 000000AB  53				push				ebx									; Push the accumulator for display
 000000AC  FF 75 10			push				[ebp+16]							; Push the buffer
 000000AF  E8 0000016C			call				WriteVal							; Display the value of the accumulator
					displayString		[ebp+44]							; Period plus spaces
 000000B4  52		     1		push				edx
 000000B5  8B 55 2C	     1		mov					edx, [ebp+44]
 000000B8  E8 00000000 E     1		call				WriteString
 000000BD  5A		     1		pop					edx
					displayString		[ebp+48]							; Introduce the current sum
 000000BE  52		     1		push				edx
 000000BF  8B 55 30	     1		mov					edx, [ebp+48]
 000000C2  E8 00000000 E     1		call				WriteString
 000000C7  5A		     1		pop					edx
 000000C8  FF 75 08			push				[ebp+8]								; Push the value of the current sum
 000000CB  FF 75 10			push				[ebp+16]							; Push the buffer
 000000CE  E8 0000014D			call				WriteVal							; Display the current Sum
					displayString		[ebp+44]							; Period plus spaces
 000000D3  52		     1		push				edx
 000000D4  8B 55 2C	     1		mov					edx, [ebp+44]
 000000D7  E8 00000000 E     1		call				WriteString
 000000DC  5A		     1		pop					edx
					displayString		[ebp+32]							; Prompt to enter an integer
 000000DD  52		     1		push				edx
 000000DE  8B 55 20	     1		mov					edx, [ebp+32]
 000000E1  E8 00000000 E     1		call				WriteString
 000000E6  5A		     1		pop					edx
 000000E7  FF 75 1C			push				[ebp+28]							; Push the error message
 000000EA  FF 75 18			push				[ebp+24]							; Push the input buffer
 000000ED  FF 75 14			push				[ebp+20]							; Push the string buffer
 000000F0  E8 000000C9			call				ReadVal								; Call procedure to gather the value

 000000F5  A1 000001F6 R		mov					eax, DWORD PTR input_buf			; Take the value aat the current buffer
 000000FA  01 45 08			add					[ebp+8], eax						; Add that value to the current sum
 000000FD  89 07			mov					[edi], eax							; Add that value to the temp array
 000000FF  83 C7 04			add					edi, 4								; Move to the next value in the temp array
 00000102  43				inc					ebx									; Increase the accumulator
 00000103  E2 A6			loop				gather


 00000105  61				popad
 00000106  5D				pop					ebp
 00000107  C2 002C			ret					44
 0000010A			inputLoop ENDP




				;-------------------------------------------------------------------------------------------------------------------
				; Procedure Name: arrayOut 
				; Description: This procedure displays each value of the array.
				; Input: 1 string output, the array, size of the array, and a string buffer.
				; Output: The array will be displayed with each value on a separate line.
				;-------------------------------------------------------------------------------------------------------------------
 0000010A			arrayOut PROC
					; NOTES: ebp+20 = ARRAY_SIZE; ebp+16 = num_array; ebp+12 = result_01; ebp+8 = string_buf
					STACKFRAME
 0000010A  55		     1		push				ebp
 0000010B  8B EC	     1		mov					ebp, esp
 0000010D  60				pushad

 0000010E  8B 4D 14			mov					ecx, [ebp+20]								; Set the loop counter
 00000111  8B 75 10			mov					esi, [ebp+16]								; The array
					
					displayString		[ebp+12]									; Result string out
 00000114  52		     1		push				edx
 00000115  8B 55 0C	     1		mov					edx, [ebp+12]
 00000118  E8 00000000 E     1		call				WriteString
 0000011D  5A		     1		pop					edx
 0000011E  E8 00000000 E		call				CrLf

 00000123			displayArray:
 00000123  8B 06			mov					eax, [esi]									; Take the current value and place in eax
 00000125  50				push				eax											; Push current value on the stack
 00000126  FF 75 08			push				[ebp+8]										; Push the buffer
 00000129  E8 000000F2			call				WriteVal									; Call procedure to display the value
 0000012E  E8 00000000 E		call				CrLf
 00000133  83 C6 04			add					esi, 4										; Move to the next value in array
 00000136  E2 EB			loop				displayArray	
 00000138  61				popad
 00000139  5D				pop					ebp
 0000013A  C2 0010			ret					16

 0000013D			arrayOut ENDP

				;-------------------------------------------------------------------------------------------------------------------
				; Procedure Name: sumAvgOut 
				; Description: This procedure displays the sum and average of all entered integers.
				; Input: 2 string outputs, the array, size of the array, string buffer, placeholders for average and sum.
				; Output: The output will show the sum and average of all integers.
				;-------------------------------------------------------------------------------------------------------------------
 0000013D			sumAvgOut PROC
					; NOTES: ebp+32 = ARRAY_SIZE; ebp+28 = num_array; ebp+24 = result_02; 
					; NOTES: ebp+20 = result_03; ebp+16 = sum; ebp+12 = average; ebp+8 = string_buf
					STACKFRAME
 0000013D  55		     1		push				ebp
 0000013E  8B EC	     1		mov					ebp, esp
 00000140  60				pushad

 00000141  8B 4D 20			mov					ecx, [ebp+32]									; Set loop counter
 00000144  8B 75 1C			mov					esi, [ebp+28]									; The array
 00000147  BB 00000000			mov					ebx, 0											; Start the sum
 0000014C			addthem:
 0000014C  8B 06			mov					eax, [esi]										; Take the current value
 0000014E  03 D8			add					ebx, eax										; Add it to the ebx register
 00000150  83 C6 04			add					esi, 4											; Move to the next value
 00000153  E2 F7			loop				addThem

 00000155  89 5D 10			mov					[ebp+16], ebx									; Place the sum in sum

 00000158  E8 00000000 E		call				CrLf
 0000015D  E8 00000000 E		call				CrLf
 00000162  E8 00000000 E		call				CrLf

					displayString		[ebp+24]										; The sum is:
 00000167  52		     1		push				edx
 00000168  8B 55 18	     1		mov					edx, [ebp+24]
 0000016B  E8 00000000 E     1		call				WriteString
 00000170  5A		     1		pop					edx
					;mov					[ebp+16], ebx
 00000171  FF 75 10			push				[ebp+16]										; Push the sum 
 00000174  FF 75 10			push				[ebp+16]										; Push the sum again
 00000177  FF 75 08			push				[ebp+8]											; Push the buffer
 0000017A  E8 000000A1			call				WriteVal										; Display the sum
 0000017F  E8 00000000 E		call				CrLf
 00000184  E8 00000000 E		call				CrLf
 00000189  E8 00000000 E		call				CrLf

 0000018E  58				pop					eax												; Pop the sum into eax
 0000018F  BB 0000000A			mov					ebx, 10											; Prepare to calculate average
 00000194  99				cdq																	; Convert double to quad
 00000195  F7 F3			div					ebx												; Calculate the average (rounded down)

					
					displayString		[ebp+20]										; The average is
 00000197  52		     1		push				edx
 00000198  8B 55 14	     1		mov					edx, [ebp+20]
 0000019B  E8 00000000 E     1		call				WriteString
 000001A0  5A		     1		pop					edx
 000001A1  50				push				eax												; Push the value of the average
 000001A2  FF 75 08			push				[ebp+8]											; Push the buffer
 000001A5  E8 00000076			call				WriteVal										; Display the average
 000001AA  E8 00000000 E		call				CrLf
 000001AF  E8 00000000 E		call				CrLf
 000001B4  E8 00000000 E		call				CrLf

 000001B9  61				popad
 000001BA  5D				pop					ebp
 000001BB  C2 001C			ret					28

					

 000001BE				sumAvgOut ENDP

				;-------------------------------------------------------------------------------------------------------------------
				; Procedure Name: ReadVal. 
				; Description: This procedure reads the integer value that is input
				; Input: Buffer for the input as well as the size of the buffer.
				; Output: Returns the value that is entered.
				;-------------------------------------------------------------------------------------------------------------------
 000001BE			ReadVal		PROC

					STACKFRAME
 000001BE  55		     1		push				ebp
 000001BF  8B EC	     1		mov					ebp, esp
 000001C1  60				pushad
 000001C2			start:

 000001C2  8B 55 0C			mov					edx, [ebp+12]				; The address of the buffer
 000001C5  8B 4D 08			mov					ecx, [ebp+8]				; The size of the buffer

					getString			edx, ecx					; Get the value and store it in edx
 000001C8  52		     1		push				edx
 000001C9  51		     1		push				ecx
 000001CA  8B D2	     1		mov					edx, edx
 000001CC  8B C9	     1		mov					ecx, ecx
 000001CE  E8 00000000 E     1		call				ReadString
 000001D3  59		     1		pop					ecx
 000001D4  5A		     1		pop					edx

 000001D5  8B F2			mov					esi, edx					; lodsb reads from the esi register, so the value must be stored there.
 000001D7  B8 00000000			mov					eax, 0						; Make sure registers are clear			
 000001DC  B9 00000000			mov					ecx, 0						; Make sure registers are clear
 000001E1  BB 0000000A			mov					ebx, 10						; For conversion b 

 000001E6			loadByte:
 000001E6  AC				lodsb											; Load the value of the esi register
 000001E7  66| 83 F8 00			cmp					ax, 0						; Check to see if the current value is the end of the string
 000001EB  74 28			je					done						; If it is, jump to done

					; ASCII values determined at www.asciitable.com
 000001ED  66| 83 F8 30			cmp					ax, 48						; Check to make sure the value is at or above 0 (ASCII Value)
 000001F1  72 11			jb					error						; If it is lower, jump to error
 000001F3  66| 83 F8 39			cmp					ax, 57						; Make sure the value is at or below 9 (ASCII Value)
 000001F7  77 0B			ja					error						; If it is higher, jump to error

 000001F9  66| 83 E8 30			sub					ax, 48						; Convert ASCII to Decimal Value
 000001FD  91				xchg				eax, ecx					; Swap eax and ecx
 000001FE  F7 E3			mul					ebx							; Multiply by 10 in order to get proper value
 00000200  72 02			jc					error						; If value is too large, jump to error
 00000202  73 0C			jnc					noError						; Otherwise jump to noError


 00000204			error:
					displayString		[ebp+16]					; Display error message.
 00000204  52		     1		push				edx
 00000205  8B 55 10	     1		mov					edx, [ebp+16]
 00000208  E8 00000000 E     1		call				WriteString
 0000020D  5A		     1		pop					edx
 0000020E  EB B2			jmp					start						; start over

 00000210			noError:
 00000210  03 C1			add					eax, ecx					; Add the digit to the register
 00000212  91				xchg				eax, ecx					; swap registers
 00000213  EB D1			jmp					loadByte					; Loop the search

 00000215			done:
 00000215  91				xchg				ecx, eax					; Final swap to ensure the right value is in the right register
 00000216  A3 000001F6 R		mov					DWORD PTR input_buf, eax	; Place the value in the current input's pointed value

 0000021B  61				popad
 0000021C  5D				pop					ebp
 0000021D  C2 000C			ret					12

 00000220			ReadVal		ENDP

				;-------------------------------------------------------------------------------------------------------------------
				; Procedure Name: WriteVal. 
				; Description: This procedure outputs the value to the screen. 
				; Input: Value and string buffer.
				; Output: Displays the value.
				;-------------------------------------------------------------------------------------------------------------------
 00000220			WriteVal PROC
					STACKFRAME
 00000220  55		     1		push				ebp
 00000221  8B EC	     1		mov					ebp, esp
 00000223  60				pushad

 00000224  8B 45 0C			mov					eax, [ebp+12]									; The integer to display
 00000227  8B 7D 08			mov					edi, [ebp+8]									; Buffer address to store
 0000022A  BB 0000000A			mov					ebx, 10											; For division
 0000022F  6A 00			push				0												; To indicate buffer end

 00000231			convert:
 00000231  BA 00000000			mov					edx, 0											; Clear the register
 00000236  F7 F3			div					ebx												; Convert integer
 00000238  83 C2 30			add					edx, 48											; Convert remainder to proper format
 0000023B  52				push				edx												; push the next digit onto stack

 0000023C  83 F8 00			cmp					eax, 0											; Check if the string is finished
 0000023F  75 F0			jne					convert											; If not, repeat the conversion

 00000241			popVal:
 00000241  8F 07			pop					[edi]											; Remove the address of the previous digit
 00000243  8B 07			mov					eax, [edi]										; Move the current value to eax
 00000245  47				inc					edi												; Increment to the next buffer value
 00000246  83 F8 00			cmp					eax, 0											; Check to see if the buffer is empty
 00000249  75 F6			jne					popVal											; If not, repeat

					
 0000024B  8B 55 08			mov					edx, [ebp+8]									; move to edx register for macro
					displayString		[ebp+8]											; Display the value	
 0000024E  52		     1		push				edx
 0000024F  8B 55 08	     1		mov					edx, [ebp+8]
 00000252  E8 00000000 E     1		call				WriteString
 00000257  5A		     1		pop					edx
					
 00000258  61				popad
 00000259  5D				pop					ebp
 0000025A  C2 0008			ret					8

 0000025D			WriteVal ENDP





				;--------------------------------------------------------------------------------------------------------------
				; Procedure Name: farewell
				; Description: This procedure issues a farewell to the user.
				; Input: None.
				; Output: Standard farewell to the user.
				;--------------------------------------------------------------------------------------------------------------
 0000025D			farewell PROC
					; Notes: ebp+16 = goodbye_01; ebp+12 = goodbye_02; ebp+8 = user_Name;
					STACKFRAME
 0000025D  55		     1		push				ebp
 0000025E  8B EC	     1		mov					ebp, esp
 00000260  E8 00000000 E		call				CrLf
					displayString		[ebp+16]
 00000265  52		     1		push				edx
 00000266  8B 55 10	     1		mov					edx, [ebp+16]
 00000269  E8 00000000 E     1		call				WriteString
 0000026E  5A		     1		pop					edx
 0000026F  E8 00000000 E		call				CrLf
 00000274  E8 00000000 E		call				CrLf
					displayString		[ebp+12]
 00000279  52		     1		push				edx
 0000027A  8B 55 0C	     1		mov					edx, [ebp+12]
 0000027D  E8 00000000 E     1		call				WriteString
 00000282  5A		     1		pop					edx
					displayString		[ebp+8]
 00000283  52		     1		push				edx
 00000284  8B 55 08	     1		mov					edx, [ebp+8]
 00000287  E8 00000000 E     1		call				WriteString
 0000028C  5A		     1		pop					edx
 0000028D  E8 00000000 E		call				CrLf

 00000292  5D				pop					ebp
 00000293  C2 000C			ret					12
 00000296			farewell ENDP 

				;--------------------------------------------------------------------------------------------------------------
				; Procedure Name: main
				; Description: This is the main procedure.
				; Input: None.
				; Output: A script type procedure that calls the other procedures as necessary..
				;--------------------------------------------------------------------------------------------------------------
 00000296			main PROC


					; Introduction. Displays the title and programmer's name.
 00000296  68 0000004F R		push				OFFSET extra_credit
 0000029B  68 00000000 R		push				OFFSET intro_01
 000002A0  68 00000033 R		push				OFFSET intro_02
 000002A5  E8 FFFFFD56			call				introduction



					; Prompts for the user's name.	
 000002AA  68 00000091 R		push				OFFSET greet_01
 000002AF  68 00000345 R		push				OFFSET user_Name
 000002B4  6A 18			push				MAX_NAME_LENGTH
 000002B6  68 000000AB R		push				OFFSET greet_02
 000002BB  E8 FFFFFD79			call				getUserName

					

					; Instruction. Asks the user for 10 unsigned integers
 000002C0  68 000001E1 R		push				OFFSET temp_sum
 000002C5  68 000001DA R		push				OFFSET period_spaces
 000002CA  68 000000B3 R		push				OFFSET prompt_01
 000002CF  68 000000D8 R		push				OFFSET prompt_02
 000002D4  68 0000010A R		push				OFFSET prompt_03
 000002D9  68 00000126 R		push				OFFSET error_01
 000002DE  68 000001F6 R		push				OFFSET input_buf
 000002E3  68 000000FF			push				SIZEOF input_buf
 000002E8  68 000002F5 R		push				OFFSET string_buf
 000002ED  68 0000031D R		push				OFFSET num_array
 000002F2  FF 35 00000315 R		push				sum
 000002F8  E8 FFFFFD7F			call				inputLoop

					; Display the array
 000002FD  6A 0A			push				ARRAY_SIZE
 000002FF  68 0000031D R		push				OFFSET num_array
 00000304  68 0000014B R		push				OFFSET result_01
 00000309  68 000002F5 R		push				OFFSET string_buf
 0000030E  E8 FFFFFDF7			call				arrayOut



					; Display the sum and the average
 00000313  6A 0A			push				ARRAY_SIZE
 00000315  68 0000031D R		push				OFFSET num_array
 0000031A  68 00000169 R		push				OFFSET result_02
 0000031F  68 00000189 R		push				OFFSET result_03
 00000324  68 00000315 R		push				OFFSET sum
 00000329  FF 35 00000319 R		push				avg
 0000032F  68 000002F5 R		push				OFFSET string_buf
 00000334  E8 FFFFFE04			call				sumAvgOut



					; Bids farewell to the user before exiting the program.	
 00000339  68 000001AD R		push				OFFSET goodbye_01
 0000033E  68 000001D0 R		push				OFFSET goodbye_02
 00000343  68 00000345 R		push				OFFSET user_name
 00000348  E8 FFFFFF10			call				farewell


					exit	; exit to operating system
 0000034D  6A 00	   *	    push   +000000000h
 0000034F  E8 00000000 E   *	    call   ExitProcess


 00000354			main ENDP


				END
Microsoft (R) Macro Assembler Version 14.10.25019.0	    05/05/17 16:04:31
)Programming Assignment #6 (Program06.asm		     Symbols 2 - 1




Macros:

                N a m e                 Type

displayString  . . . . . . . . .	Proc
getString  . . . . . . . . . . .	Proc
stackFrame . . . . . . . . . . .	Proc


Structures and Unions:

                N a m e                  Size
                                         Offset      Type

CONSOLE_CURSOR_INFO  . . . . . .	 00000008
  dwSize . . . . . . . . . . . .	 00000000	 DWord
  bVisible . . . . . . . . . . .	 00000004	 DWord
CONSOLE_SCREEN_BUFFER_INFO . . .	 00000016
  dwSize . . . . . . . . . . . .	 00000000	 DWord
  dwCursorPosition . . . . . . .	 00000004	 DWord
  wAttributes  . . . . . . . . .	 00000008	 Word
  srWindow . . . . . . . . . . .	 0000000A	 QWord
  dwMaximumWindowSize  . . . . .	 00000012	 DWord
COORD  . . . . . . . . . . . . .	 00000004
  X  . . . . . . . . . . . . . .	 00000000	 Word
  Y  . . . . . . . . . . . . . .	 00000002	 Word
FILETIME . . . . . . . . . . . .	 00000008
  loDateTime . . . . . . . . . .	 00000000	 DWord
  hiDateTime . . . . . . . . . .	 00000004	 DWord
FOCUS_EVENT_RECORD . . . . . . .	 00000004
  bSetFocus  . . . . . . . . . .	 00000000	 DWord
FPU_ENVIRON  . . . . . . . . . .	 0000001C
  controlWord  . . . . . . . . .	 00000000	 Word
  statusWord . . . . . . . . . .	 00000004	 Word
  tagWord  . . . . . . . . . . .	 00000008	 Word
  instrPointerOffset . . . . . .	 0000000C	 DWord
  instrPointerSelector . . . . .	 00000010	 DWord
  operandPointerOffset . . . . .	 00000014	 DWord
  operandPointerSelector . . . .	 00000018	 Word
INPUT_RECORD . . . . . . . . . .	 00000014
  EventType  . . . . . . . . . .	 00000000	 Word
  Event  . . . . . . . . . . . .	 00000004	 XmmWord
  bKeyDown . . . . . . . . . . .	 00000000	 DWord
  wRepeatCount . . . . . . . . .	 00000004	 Word
  wVirtualKeyCode  . . . . . . .	 00000006	 Word
  wVirtualScanCode . . . . . . .	 00000008	 Word
  uChar  . . . . . . . . . . . .	 0000000A	 Word
  UnicodeChar  . . . . . . . . .	 00000000	 Word
  AsciiChar  . . . . . . . . . .	 00000000	 Byte
  dwControlKeyState  . . . . . .	 0000000C	 DWord
  dwMousePosition  . . . . . . .	 00000000	 DWord
  dwButtonState  . . . . . . . .	 00000004	 DWord
  dwMouseControlKeyState . . . .	 00000008	 DWord
  dwEventFlags . . . . . . . . .	 0000000C	 DWord
  dwSize . . . . . . . . . . . .	 00000000	 DWord
  dwCommandId  . . . . . . . . .	 00000000	 DWord
  bSetFocus  . . . . . . . . . .	 00000000	 DWord
KEY_EVENT_RECORD . . . . . . . .	 00000010
  bKeyDown . . . . . . . . . . .	 00000000	 DWord
  wRepeatCount . . . . . . . . .	 00000004	 Word
  wVirtualKeyCode  . . . . . . .	 00000006	 Word
  wVirtualScanCode . . . . . . .	 00000008	 Word
  uChar  . . . . . . . . . . . .	 0000000A	 Word
  UnicodeChar  . . . . . . . . .	 00000000	 Word
  AsciiChar  . . . . . . . . . .	 00000000	 Byte
  dwControlKeyState  . . . . . .	 0000000C	 DWord
MENU_EVENT_RECORD  . . . . . . .	 00000004
  dwCommandId  . . . . . . . . .	 00000000	 DWord
MOUSE_EVENT_RECORD . . . . . . .	 00000010
  dwMousePosition  . . . . . . .	 00000000	 DWord
  dwButtonState  . . . . . . . .	 00000004	 DWord
  dwMouseControlKeyState . . . .	 00000008	 DWord
  dwEventFlags . . . . . . . . .	 0000000C	 DWord
SMALL_RECT . . . . . . . . . . .	 00000008
  Left . . . . . . . . . . . . .	 00000000	 Word
  Top  . . . . . . . . . . . . .	 00000002	 Word
  Right  . . . . . . . . . . . .	 00000004	 Word
  Bottom . . . . . . . . . . . .	 00000006	 Word
SYSTEMTIME . . . . . . . . . . .	 00000010
  wYear  . . . . . . . . . . . .	 00000000	 Word
  wMonth . . . . . . . . . . . .	 00000002	 Word
  wDayOfWeek . . . . . . . . . .	 00000004	 Word
  wDay . . . . . . . . . . . . .	 00000006	 Word
  wHour  . . . . . . . . . . . .	 00000008	 Word
  wMinute  . . . . . . . . . . .	 0000000A	 Word
  wSecond  . . . . . . . . . . .	 0000000C	 Word
  wMilliseconds  . . . . . . . .	 0000000E	 Word
WINDOW_BUFFER_SIZE_RECORD  . . .	 00000004
  dwSize . . . . . . . . . . . .	 00000000	 DWord


Segments and Groups:

                N a m e                 Size     Length   Align   Combine Class

FLAT . . . . . . . . . . . . . .	GROUP
STACK  . . . . . . . . . . . . .	32 Bit	 00001000 Para	  Stack	  'STACK'	 
_DATA  . . . . . . . . . . . . .	32 Bit	 0000035D Para	  Public  'DATA'	
_TEXT  . . . . . . . . . . . . .	32 Bit	 00000354 Para	  Public  'CODE'	


Procedures, parameters, and locals:

                N a m e                 Type     Value    Attr

CloseFile  . . . . . . . . . . .	P Near	 00000000 FLAT	Length= 00000000 External STDCALL
CloseHandle  . . . . . . . . . .	P Near	 00000000 FLAT	Length= 00000000 External STDCALL
Clrscr . . . . . . . . . . . . .	P Near	 00000000 FLAT	Length= 00000000 External STDCALL
CreateFileA  . . . . . . . . . .	P Near	 00000000 FLAT	Length= 00000000 External STDCALL
CreateOutputFile . . . . . . . .	P Near	 00000000 FLAT	Length= 00000000 External STDCALL
Crlf . . . . . . . . . . . . . .	P Near	 00000000 FLAT	Length= 00000000 External STDCALL
Delay  . . . . . . . . . . . . .	P Near	 00000000 FLAT	Length= 00000000 External STDCALL
DumpMem  . . . . . . . . . . . .	P Near	 00000000 FLAT	Length= 00000000 External STDCALL
DumpRegs . . . . . . . . . . . .	P Near	 00000000 FLAT	Length= 00000000 External STDCALL
ExitProcess  . . . . . . . . . .	P Near	 00000000 FLAT	Length= 00000000 External STDCALL
FileTimeToDosDateTime  . . . . .	P Near	 00000000 FLAT	Length= 00000000 External STDCALL
FileTimeToSystemTime . . . . . .	P Near	 00000000 FLAT	Length= 00000000 External STDCALL
FlushConsoleInputBuffer  . . . .	P Near	 00000000 FLAT	Length= 00000000 External STDCALL
FormatMessageA . . . . . . . . .	P Near	 00000000 FLAT	Length= 00000000 External STDCALL
GetCommandLineA  . . . . . . . .	P Near	 00000000 FLAT	Length= 00000000 External STDCALL
GetCommandTail . . . . . . . . .	P Near	 00000000 FLAT	Length= 00000000 External STDCALL
GetConsoleCP . . . . . . . . . .	P Near	 00000000 FLAT	Length= 00000000 External STDCALL
GetConsoleCursorInfo . . . . . .	P Near	 00000000 FLAT	Length= 00000000 External STDCALL
GetConsoleMode . . . . . . . . .	P Near	 00000000 FLAT	Length= 00000000 External STDCALL
GetConsoleScreenBufferInfo . . .	P Near	 00000000 FLAT	Length= 00000000 External STDCALL
GetDateTime  . . . . . . . . . .	P Near	 00000000 FLAT	Length= 00000000 External STDCALL
GetFileTime  . . . . . . . . . .	P Near	 00000000 FLAT	Length= 00000000 External STDCALL
GetKeyState  . . . . . . . . . .	P Near	 00000000 FLAT	Length= 00000000 External STDCALL
GetLastError . . . . . . . . . .	P Near	 00000000 FLAT	Length= 00000000 External STDCALL
GetLocalTime . . . . . . . . . .	P Near	 00000000 FLAT	Length= 00000000 External STDCALL
GetMaxXY . . . . . . . . . . . .	P Near	 00000000 FLAT	Length= 00000000 External STDCALL
GetMseconds  . . . . . . . . . .	P Near	 00000000 FLAT	Length= 00000000 External STDCALL
GetNumberOfConsoleInputEvents  .	P Near	 00000000 FLAT	Length= 00000000 External STDCALL
GetProcessHeap . . . . . . . . .	P Near	 00000000 FLAT	Length= 00000000 External STDCALL
GetStdHandle . . . . . . . . . .	P Near	 00000000 FLAT	Length= 00000000 External STDCALL
GetSystemTime  . . . . . . . . .	P Near	 00000000 FLAT	Length= 00000000 External STDCALL
GetTextColor . . . . . . . . . .	P Near	 00000000 FLAT	Length= 00000000 External STDCALL
GetTickCount . . . . . . . . . .	P Near	 00000000 FLAT	Length= 00000000 External STDCALL
Gotoxy . . . . . . . . . . . . .	P Near	 00000000 FLAT	Length= 00000000 External STDCALL
HeapAlloc  . . . . . . . . . . .	P Near	 00000000 FLAT	Length= 00000000 External STDCALL
HeapCreate . . . . . . . . . . .	P Near	 00000000 FLAT	Length= 00000000 External STDCALL
HeapDestroy  . . . . . . . . . .	P Near	 00000000 FLAT	Length= 00000000 External STDCALL
HeapFree . . . . . . . . . . . .	P Near	 00000000 FLAT	Length= 00000000 External STDCALL
HeapSize . . . . . . . . . . . .	P Near	 00000000 FLAT	Length= 00000000 External STDCALL
IsDigit  . . . . . . . . . . . .	P Near	 00000000 FLAT	Length= 00000000 External STDCALL
LocalFree  . . . . . . . . . . .	P Near	 00000000 FLAT	Length= 00000000 External STDCALL
MessageBoxA  . . . . . . . . . .	P Near	 00000000 FLAT	Length= 00000000 External STDCALL
MsgBoxAsk  . . . . . . . . . . .	P Near	 00000000 FLAT	Length= 00000000 External STDCALL
MsgBox . . . . . . . . . . . . .	P Near	 00000000 FLAT	Length= 00000000 External STDCALL
OpenInputFile  . . . . . . . . .	P Near	 00000000 FLAT	Length= 00000000 External STDCALL
ParseDecimal32 . . . . . . . . .	P Near	 00000000 FLAT	Length= 00000000 External STDCALL
ParseInteger32 . . . . . . . . .	P Near	 00000000 FLAT	Length= 00000000 External STDCALL
PeekConsoleInputA  . . . . . . .	P Near	 00000000 FLAT	Length= 00000000 External STDCALL
Random32 . . . . . . . . . . . .	P Near	 00000000 FLAT	Length= 00000000 External STDCALL
RandomRange  . . . . . . . . . .	P Near	 00000000 FLAT	Length= 00000000 External STDCALL
Randomize  . . . . . . . . . . .	P Near	 00000000 FLAT	Length= 00000000 External STDCALL
ReadChar . . . . . . . . . . . .	P Near	 00000000 FLAT	Length= 00000000 External STDCALL
ReadConsoleA . . . . . . . . . .	P Near	 00000000 FLAT	Length= 00000000 External STDCALL
ReadConsoleInputA  . . . . . . .	P Near	 00000000 FLAT	Length= 00000000 External STDCALL
ReadDec  . . . . . . . . . . . .	P Near	 00000000 FLAT	Length= 00000000 External STDCALL
ReadFile . . . . . . . . . . . .	P Near	 00000000 FLAT	Length= 00000000 External STDCALL
ReadFloat  . . . . . . . . . . .	P Near	 00000000 FLAT	Length= 00000000 External STDCALL
ReadFromFile . . . . . . . . . .	P Near	 00000000 FLAT	Length= 00000000 External STDCALL
ReadHex  . . . . . . . . . . . .	P Near	 00000000 FLAT	Length= 00000000 External STDCALL
ReadInt  . . . . . . . . . . . .	P Near	 00000000 FLAT	Length= 00000000 External STDCALL
ReadKeyFlush . . . . . . . . . .	P Near	 00000000 FLAT	Length= 00000000 External STDCALL
ReadKey  . . . . . . . . . . . .	P Near	 00000000 FLAT	Length= 00000000 External STDCALL
ReadString . . . . . . . . . . .	P Near	 00000000 FLAT	Length= 00000000 External STDCALL
ReadVal  . . . . . . . . . . . .	P Near	 000001BE _TEXT	Length= 00000062 Public STDCALL
  start  . . . . . . . . . . . .	L Near	 000001C2 _TEXT	
  loadByte . . . . . . . . . . .	L Near	 000001E6 _TEXT	
  error  . . . . . . . . . . . .	L Near	 00000204 _TEXT	
  noError  . . . . . . . . . . .	L Near	 00000210 _TEXT	
  done . . . . . . . . . . . . .	L Near	 00000215 _TEXT	
SetConsoleCursorInfo . . . . . .	P Near	 00000000 FLAT	Length= 00000000 External STDCALL
SetConsoleCursorPosition . . . .	P Near	 00000000 FLAT	Length= 00000000 External STDCALL
SetConsoleMode . . . . . . . . .	P Near	 00000000 FLAT	Length= 00000000 External STDCALL
SetConsoleScreenBufferSize . . .	P Near	 00000000 FLAT	Length= 00000000 External STDCALL
SetConsoleTextAttribute  . . . .	P Near	 00000000 FLAT	Length= 00000000 External STDCALL
SetConsoleTitleA . . . . . . . .	P Near	 00000000 FLAT	Length= 00000000 External STDCALL
SetConsoleWindowInfo . . . . . .	P Near	 00000000 FLAT	Length= 00000000 External STDCALL
SetFilePointer . . . . . . . . .	P Near	 00000000 FLAT	Length= 00000000 External STDCALL
SetLocalTime . . . . . . . . . .	P Near	 00000000 FLAT	Length= 00000000 External STDCALL
SetTextColor . . . . . . . . . .	P Near	 00000000 FLAT	Length= 00000000 External STDCALL
ShowFPUStack . . . . . . . . . .	P Near	 00000000 FLAT	Length= 00000000 External STDCALL
Sleep  . . . . . . . . . . . . .	P Near	 00000000 FLAT	Length= 00000000 External STDCALL
StrLength  . . . . . . . . . . .	P Near	 00000000 FLAT	Length= 00000000 External STDCALL
Str_compare  . . . . . . . . . .	P Near	 00000000 FLAT	Length= 00000000 External STDCALL
Str_copy . . . . . . . . . . . .	P Near	 00000000 FLAT	Length= 00000000 External STDCALL
Str_length . . . . . . . . . . .	P Near	 00000000 FLAT	Length= 00000000 External STDCALL
Str_trim . . . . . . . . . . . .	P Near	 00000000 FLAT	Length= 00000000 External STDCALL
Str_ucase  . . . . . . . . . . .	P Near	 00000000 FLAT	Length= 00000000 External STDCALL
SystemTimeToFileTime . . . . . .	P Near	 00000000 FLAT	Length= 00000000 External STDCALL
WaitMsg  . . . . . . . . . . . .	P Near	 00000000 FLAT	Length= 00000000 External STDCALL
WriteBinB  . . . . . . . . . . .	P Near	 00000000 FLAT	Length= 00000000 External STDCALL
WriteBin . . . . . . . . . . . .	P Near	 00000000 FLAT	Length= 00000000 External STDCALL
WriteChar  . . . . . . . . . . .	P Near	 00000000 FLAT	Length= 00000000 External STDCALL
WriteConsoleA  . . . . . . . . .	P Near	 00000000 FLAT	Length= 00000000 External STDCALL
WriteConsoleOutputAttribute  . .	P Near	 00000000 FLAT	Length= 00000000 External STDCALL
WriteConsoleOutputCharacterA . .	P Near	 00000000 FLAT	Length= 00000000 External STDCALL
WriteDec . . . . . . . . . . . .	P Near	 00000000 FLAT	Length= 00000000 External STDCALL
WriteFile  . . . . . . . . . . .	P Near	 00000000 FLAT	Length= 00000000 External STDCALL
WriteFloat . . . . . . . . . . .	P Near	 00000000 FLAT	Length= 00000000 External STDCALL
WriteHexB  . . . . . . . . . . .	P Near	 00000000 FLAT	Length= 00000000 External STDCALL
WriteHex . . . . . . . . . . . .	P Near	 00000000 FLAT	Length= 00000000 External STDCALL
WriteInt . . . . . . . . . . . .	P Near	 00000000 FLAT	Length= 00000000 External STDCALL
WriteStackFrameName  . . . . . .	P Near	 00000000 FLAT	Length= 00000000 External STDCALL
WriteStackFrame  . . . . . . . .	P Near	 00000000 FLAT	Length= 00000000 External STDCALL
WriteString  . . . . . . . . . .	P Near	 00000000 FLAT	Length= 00000000 External STDCALL
WriteToFile  . . . . . . . . . .	P Near	 00000000 FLAT	Length= 00000000 External STDCALL
WriteVal . . . . . . . . . . . .	P Near	 00000220 _TEXT	Length= 0000003D Public STDCALL
  convert  . . . . . . . . . . .	L Near	 00000231 _TEXT	
  popVal . . . . . . . . . . . .	L Near	 00000241 _TEXT	
WriteWindowsMsg  . . . . . . . .	P Near	 00000000 FLAT	Length= 00000000 External STDCALL
arrayOut . . . . . . . . . . . .	P Near	 0000010A _TEXT	Length= 00000033 Public STDCALL
  displayArray . . . . . . . . .	L Near	 00000123 _TEXT	
farewell . . . . . . . . . . . .	P Near	 0000025D _TEXT	Length= 00000039 Public STDCALL
getUserName  . . . . . . . . . .	P Near	 00000039 _TEXT	Length= 00000043 Public STDCALL
inputLoop  . . . . . . . . . . .	P Near	 0000007C _TEXT	Length= 0000008E Public STDCALL
  gather . . . . . . . . . . . .	L Near	 000000AB _TEXT	
introduction . . . . . . . . . .	P Near	 00000000 _TEXT	Length= 00000039 Public STDCALL
main . . . . . . . . . . . . . .	P Near	 00000296 _TEXT	Length= 000000BE Public STDCALL
printf . . . . . . . . . . . . .	P Near	 00000000 FLAT	Length= 00000000 External C
scanf  . . . . . . . . . . . . .	P Near	 00000000 FLAT	Length= 00000000 External C
sumAvgOut  . . . . . . . . . . .	P Near	 0000013D _TEXT	Length= 00000081 Public STDCALL
  addthem  . . . . . . . . . . .	L Near	 0000014C _TEXT	
wsprintfA  . . . . . . . . . . .	P Near	 00000000 FLAT	Length= 00000000 External C


Symbols:

                N a m e                 Type     Value    Attr

@CodeSize  . . . . . . . . . . .	Number	 00000000h   
@DataSize  . . . . . . . . . . .	Number	 00000000h   
@Interface . . . . . . . . . . .	Number	 00000003h   
@Model . . . . . . . . . . . . .	Number	 00000007h   
@code  . . . . . . . . . . . . .	Text   	 _TEXT
@data  . . . . . . . . . . . . .	Text   	 FLAT
@fardata?  . . . . . . . . . . .	Text   	 FLAT
@fardata . . . . . . . . . . . .	Text   	 FLAT
@stack . . . . . . . . . . . . .	Text   	 FLAT
ALT_MASK . . . . . . . . . . . .	Number	 00000003h   
ARRAY_SIZE . . . . . . . . . . .	Number	 0000000Ah   
CAPSLOCK_ON  . . . . . . . . . .	Number	 00000080h   
CREATE_ALWAYS  . . . . . . . . .	Number	 00000002h   
CREATE_NEW . . . . . . . . . . .	Number	 00000001h   
CTRL_MASK  . . . . . . . . . . .	Number	 0000000Ch   
CreateFile . . . . . . . . . . .	Text   	 CreateFileA
DO_NOT_SHARE . . . . . . . . . .	Number	 00000000h   
ENABLE_ECHO_INPUT  . . . . . . .	Number	 00000004h   
ENABLE_LINE_INPUT  . . . . . . .	Number	 00000002h   
ENABLE_MOUSE_INPUT . . . . . . .	Number	 00000010h   
ENABLE_PROCESSED_INPUT . . . . .	Number	 00000001h   
ENABLE_PROCESSED_OUTPUT  . . . .	Number	 00000001h   
ENABLE_WINDOW_INPUT  . . . . . .	Number	 00000008h   
ENABLE_WRAP_AT_EOL_OUTPUT  . . .	Number	 00000002h   
ENHANCED_KEY . . . . . . . . . .	Number	 00000100h   
FALSE  . . . . . . . . . . . . .	Number	 00000000h   
FILE_APPEND_DATA . . . . . . . .	Number	 00000004h   
FILE_ATTRIBUTE_ARCHIVE . . . . .	Number	 00000020h   
FILE_ATTRIBUTE_COMPRESSED  . . .	Number	 00000800h   
FILE_ATTRIBUTE_DEVICE  . . . . .	Number	 00000040h   
FILE_ATTRIBUTE_DIRECTORY . . . .	Number	 00000010h   
FILE_ATTRIBUTE_ENCRYPTED . . . .	Number	 00004000h   
FILE_ATTRIBUTE_HIDDEN  . . . . .	Number	 00000002h   
FILE_ATTRIBUTE_NORMAL  . . . . .	Number	 00000080h   
FILE_ATTRIBUTE_NOT_CONTENT_INDEXED .	Number	 00002000h   
FILE_ATTRIBUTE_OFFLINE . . . . .	Number	 00001000h   
FILE_ATTRIBUTE_READONLY  . . . .	Number	 00000001h   
FILE_ATTRIBUTE_REPARSE_POINT . .	Number	 00000400h   
FILE_ATTRIBUTE_SPARSE_FILE . . .	Number	 00000200h   
FILE_ATTRIBUTE_SYSTEM  . . . . .	Number	 00000004h   
FILE_ATTRIBUTE_TEMPORARY . . . .	Number	 00000100h   
FILE_BEGIN . . . . . . . . . . .	Number	 00000000h   
FILE_CURRENT . . . . . . . . . .	Number	 00000001h   
FILE_DELETE_CHILD  . . . . . . .	Number	 00000040h   
FILE_END . . . . . . . . . . . .	Number	 00000002h   
FILE_READ_DATA . . . . . . . . .	Number	 00000001h   
FILE_SHARE_DELETE  . . . . . . .	Number	 00000004h   
FILE_SHARE_READ  . . . . . . . .	Number	 00000001h   
FILE_SHARE_WRITE . . . . . . . .	Number	 00000002h   
FILE_WRITE_DATA  . . . . . . . .	Number	 00000002h   
FOCUS_EVENT  . . . . . . . . . .	Number	 00000010h   
FORMAT_MESSAGE_ALLOCATE_BUFFER .	Number	 00000100h   
FORMAT_MESSAGE_FROM_SYSTEM . . .	Number	 00001000h   
FormatMessage  . . . . . . . . .	Text   	 FormatMessageA
GENERIC_ALL  . . . . . . . . . .	Number	 10000000h   
GENERIC_EXECUTE  . . . . . . . .	Number	 20000000h   
GENERIC_READ . . . . . . . . . .	Number	 -80000000h   
GENERIC_WRITE  . . . . . . . . .	Number	 40000000h   
GetCommandLine . . . . . . . . .	Text   	 GetCommandLineA
HANDLE . . . . . . . . . . . . .	Text   	 DWORD
HEAP_GENERATE_EXCEPTIONS . . . .	Number	 00000004h   
HEAP_GROWABLE  . . . . . . . . .	Number	 00000002h   
HEAP_NO_SERIALIZE  . . . . . . .	Number	 00000001h   
HEAP_REALLOC_IN_PLACE_ONLY . . .	Number	 00000010h   
HEAP_ZERO_MEMORY . . . . . . . .	Number	 00000008h   
IDABORT  . . . . . . . . . . . .	Number	 00000003h   
IDCANCEL . . . . . . . . . . . .	Number	 00000002h   
IDCLOSE  . . . . . . . . . . . .	Number	 00000008h   
IDCONTINUE . . . . . . . . . . .	Number	 0000000Bh   
IDHELP . . . . . . . . . . . . .	Number	 00000009h   
IDIGNORE . . . . . . . . . . . .	Number	 00000005h   
IDNO . . . . . . . . . . . . . .	Number	 00000007h   
IDOK . . . . . . . . . . . . . .	Number	 00000001h   
IDRETRY  . . . . . . . . . . . .	Number	 00000004h   
IDTIMEOUT  . . . . . . . . . . .	Number	 00007D00h   
IDTRYAGAIN . . . . . . . . . . .	Number	 0000000Ah   
IDYES  . . . . . . . . . . . . .	Number	 00000006h   
INVALID_HANDLE_VALUE . . . . . .	Number	 -00000001h   
KBDOWN_FLAG  . . . . . . . . . .	Number	 00000001h   
KEY_EVENT  . . . . . . . . . . .	Number	 00000001h   
KEY_MASKS  . . . . . . . . . . .	Number	 0000001Fh   
LEFT_ALT_PRESSED . . . . . . . .	Number	 00000002h   
LEFT_CTRL_PRESSED  . . . . . . .	Number	 00000008h   
MAX_NAME_LENGTH  . . . . . . . .	Number	 00000018h   
MB_ABORTRETRYIGNORE  . . . . . .	Number	 00000002h   
MB_APPLMODAL . . . . . . . . . .	Number	 00000000h   
MB_CANCELTRYCONTINUE . . . . . .	Number	 00000006h   
MB_DEFBUTTON1  . . . . . . . . .	Number	 00000000h   
MB_DEFBUTTON2  . . . . . . . . .	Number	 00000100h   
MB_DEFBUTTON3  . . . . . . . . .	Number	 00000200h   
MB_DEFBUTTON4  . . . . . . . . .	Number	 00000300h   
MB_HELP  . . . . . . . . . . . .	Number	 00004000h   
MB_ICONASTERISK  . . . . . . . .	Number	 00000040h   
MB_ICONERROR . . . . . . . . . .	Number	 00000010h   
MB_ICONEXCLAMATION . . . . . . .	Number	 00000030h   
MB_ICONHAND  . . . . . . . . . .	Number	 00000010h   
MB_ICONINFORMATION . . . . . . .	Number	 00000040h   
MB_ICONQUESTION  . . . . . . . .	Number	 00000020h   
MB_ICONSTOP  . . . . . . . . . .	Number	 00000010h   
MB_ICONWARNING . . . . . . . . .	Number	 00000030h   
MB_OKCANCEL  . . . . . . . . . .	Number	 00000001h   
MB_OK  . . . . . . . . . . . . .	Number	 00000000h   
MB_RETRYCANCEL . . . . . . . . .	Number	 00000005h   
MB_SYSTEMMODAL . . . . . . . . .	Number	 00001000h   
MB_TASKMODAL . . . . . . . . . .	Number	 00002000h   
MB_USERICON  . . . . . . . . . .	Number	 00000080h   
MB_YESNOCANCEL . . . . . . . . .	Number	 00000003h   
MB_YESNO . . . . . . . . . . . .	Number	 00000004h   
MENU_EVENT . . . . . . . . . . .	Number	 00000008h   
MOUSE_EVENT  . . . . . . . . . .	Number	 00000002h   
MessageBox . . . . . . . . . . .	Text   	 MessageBoxA
NULL . . . . . . . . . . . . . .	Number	 00000000h   
NUMLOCK_ON . . . . . . . . . . .	Number	 00000020h   
OPEN_ALWAYS  . . . . . . . . . .	Number	 00000004h   
OPEN_EXISTING  . . . . . . . . .	Number	 00000003h   
PeekConsoleInput . . . . . . . .	Text   	 PeekConsoleInputA
RIGHT_ALT_PRESSED  . . . . . . .	Number	 00000001h   
RIGHT_CTRL_PRESSED . . . . . . .	Number	 00000004h   
ReadConsoleInput . . . . . . . .	Text   	 ReadConsoleInputA
ReadConsole  . . . . . . . . . .	Text   	 ReadConsoleA
SCROLLLOCK_ON  . . . . . . . . .	Number	 00000040h   
SHIFT_MASK . . . . . . . . . . .	Number	 00000010h   
SHIFT_PRESSED  . . . . . . . . .	Number	 00000010h   
STD_ERROR_HANDLE . . . . . . . .	Number	 -0000000Ch   
STD_INPUT_HANDLE . . . . . . . .	Number	 -0000000Ah   
STD_OUTPUT_HANDLE  . . . . . . .	Number	 -0000000Bh   
SetConsoleTitle  . . . . . . . .	Text   	 SetConsoleTitleA
TAB  . . . . . . . . . . . . . .	Number	 00000009h   
TRUE . . . . . . . . . . . . . .	Number	 00000001h   
TRUNCATE_EXISTING  . . . . . . .	Number	 00000005h   
VK_11  . . . . . . . . . . . . .	Number	 000000BDh   
VK_12  . . . . . . . . . . . . .	Number	 000000BBh   
VK_ADD . . . . . . . . . . . . .	Number	 0000006Bh   
VK_BACK  . . . . . . . . . . . .	Number	 00000008h   
VK_CANCEL  . . . . . . . . . . .	Number	 00000003h   
VK_CAPITAL . . . . . . . . . . .	Number	 00000014h   
VK_CLEAR . . . . . . . . . . . .	Number	 0000000Ch   
VK_CONTROL . . . . . . . . . . .	Number	 00000011h   
VK_DECIMAL . . . . . . . . . . .	Number	 0000006Eh   
VK_DELETE  . . . . . . . . . . .	Number	 0000002Eh   
VK_DIVIDE  . . . . . . . . . . .	Number	 0000006Fh   
VK_DOWN  . . . . . . . . . . . .	Number	 00000028h   
VK_END . . . . . . . . . . . . .	Number	 00000023h   
VK_ESCAPE  . . . . . . . . . . .	Number	 0000001Bh   
VK_EXECUTE . . . . . . . . . . .	Number	 0000002Bh   
VK_F10 . . . . . . . . . . . . .	Number	 00000079h   
VK_F11 . . . . . . . . . . . . .	Number	 0000007Ah   
VK_F12 . . . . . . . . . . . . .	Number	 0000007Bh   
VK_F13 . . . . . . . . . . . . .	Number	 0000007Ch   
VK_F14 . . . . . . . . . . . . .	Number	 0000007Dh   
VK_F15 . . . . . . . . . . . . .	Number	 0000007Eh   
VK_F16 . . . . . . . . . . . . .	Number	 0000007Fh   
VK_F17 . . . . . . . . . . . . .	Number	 00000080h   
VK_F18 . . . . . . . . . . . . .	Number	 00000081h   
VK_F19 . . . . . . . . . . . . .	Number	 00000082h   
VK_F1  . . . . . . . . . . . . .	Number	 00000070h   
VK_F20 . . . . . . . . . . . . .	Number	 00000083h   
VK_F21 . . . . . . . . . . . . .	Number	 00000084h   
VK_F22 . . . . . . . . . . . . .	Number	 00000085h   
VK_F23 . . . . . . . . . . . . .	Number	 00000086h   
VK_F24 . . . . . . . . . . . . .	Number	 00000087h   
VK_F2  . . . . . . . . . . . . .	Number	 00000071h   
VK_F3  . . . . . . . . . . . . .	Number	 00000072h   
VK_F4  . . . . . . . . . . . . .	Number	 00000073h   
VK_F5  . . . . . . . . . . . . .	Number	 00000074h   
VK_F6  . . . . . . . . . . . . .	Number	 00000075h   
VK_F7  . . . . . . . . . . . . .	Number	 00000076h   
VK_F8  . . . . . . . . . . . . .	Number	 00000077h   
VK_F9  . . . . . . . . . . . . .	Number	 00000078h   
VK_HELP  . . . . . . . . . . . .	Number	 0000002Fh   
VK_HOME  . . . . . . . . . . . .	Number	 00000024h   
VK_INSERT  . . . . . . . . . . .	Number	 0000002Dh   
VK_LBUTTON . . . . . . . . . . .	Number	 00000001h   
VK_LCONTROL  . . . . . . . . . .	Number	 000000A2h   
VK_LEFT  . . . . . . . . . . . .	Number	 00000025h   
VK_LMENU . . . . . . . . . . . .	Number	 000000A4h   
VK_LSHIFT  . . . . . . . . . . .	Number	 000000A0h   
VK_MENU  . . . . . . . . . . . .	Number	 00000012h   
VK_MULTIPLY  . . . . . . . . . .	Number	 0000006Ah   
VK_NEXT  . . . . . . . . . . . .	Number	 00000022h   
VK_NUMLOCK . . . . . . . . . . .	Number	 00000090h   
VK_NUMPAD0 . . . . . . . . . . .	Number	 00000060h   
VK_NUMPAD1 . . . . . . . . . . .	Number	 00000061h   
VK_NUMPAD2 . . . . . . . . . . .	Number	 00000062h   
VK_NUMPAD3 . . . . . . . . . . .	Number	 00000063h   
VK_NUMPAD4 . . . . . . . . . . .	Number	 00000064h   
VK_NUMPAD5 . . . . . . . . . . .	Number	 00000065h   
VK_NUMPAD6 . . . . . . . . . . .	Number	 00000066h   
VK_NUMPAD7 . . . . . . . . . . .	Number	 00000067h   
VK_NUMPAD8 . . . . . . . . . . .	Number	 00000068h   
VK_NUMPAD9 . . . . . . . . . . .	Number	 00000069h   
VK_PAUSE . . . . . . . . . . . .	Number	 00000013h   
VK_PRINT . . . . . . . . . . . .	Number	 0000002Ah   
VK_PRIOR . . . . . . . . . . . .	Number	 00000021h   
VK_RBUTTON . . . . . . . . . . .	Number	 00000002h   
VK_RCONTROL  . . . . . . . . . .	Number	 000000A3h   
VK_RETURN  . . . . . . . . . . .	Number	 0000000Dh   
VK_RIGHT . . . . . . . . . . . .	Number	 00000027h   
VK_RMENU . . . . . . . . . . . .	Number	 000000A5h   
VK_RSHIFT  . . . . . . . . . . .	Number	 000000A1h   
VK_SCROLL  . . . . . . . . . . .	Number	 00000091h   
VK_SEPARATER . . . . . . . . . .	Number	 0000006Ch   
VK_SHIFT . . . . . . . . . . . .	Number	 00000010h   
VK_SNAPSHOT  . . . . . . . . . .	Number	 0000002Ch   
VK_SPACE . . . . . . . . . . . .	Number	 00000020h   
VK_SUBTRACT  . . . . . . . . . .	Number	 0000006Dh   
VK_TAB . . . . . . . . . . . . .	Number	 00000009h   
VK_UP  . . . . . . . . . . . . .	Number	 00000026h   
WINDOW_BUFFER_SIZE_EVENT . . . .	Number	 00000004h   
WriteConsoleOutputCharacter  . .	Text   	 WriteConsoleOutputCharacterA
WriteConsole . . . . . . . . . .	Text   	 WriteConsoleA
avg  . . . . . . . . . . . . . .	DWord	 00000319 _DATA	
black  . . . . . . . . . . . . .	Number	 00000000h   
blue . . . . . . . . . . . . . .	Number	 00000001h   
brown  . . . . . . . . . . . . .	Number	 00000006h   
cyan . . . . . . . . . . . . . .	Number	 00000003h   
error_01 . . . . . . . . . . . .	Byte	 00000126 _DATA	
exit . . . . . . . . . . . . . .	Text   	 INVOKE ExitProcess,0
extra_credit . . . . . . . . . .	Byte	 0000004F _DATA	
goodbye_01 . . . . . . . . . . .	Byte	 000001AD _DATA	
goodbye_02 . . . . . . . . . . .	Byte	 000001D0 _DATA	
gray . . . . . . . . . . . . . .	Number	 00000008h   
green  . . . . . . . . . . . . .	Number	 00000002h   
greet_01 . . . . . . . . . . . .	Byte	 00000091 _DATA	
greet_02 . . . . . . . . . . . .	Byte	 000000AB _DATA	
input_buf  . . . . . . . . . . .	Byte	 000001F6 _DATA	
intro_01 . . . . . . . . . . . .	Byte	 00000000 _DATA	
intro_02 . . . . . . . . . . . .	Byte	 00000033 _DATA	
lightBlue  . . . . . . . . . . .	Number	 00000009h   
lightCyan  . . . . . . . . . . .	Number	 0000000Bh   
lightGray  . . . . . . . . . . .	Number	 00000007h   
lightGreen . . . . . . . . . . .	Number	 0000000Ah   
lightMagenta . . . . . . . . . .	Number	 0000000Dh   
lightRed . . . . . . . . . . . .	Number	 0000000Ch   
magenta  . . . . . . . . . . . .	Number	 00000005h   
num_array  . . . . . . . . . . .	DWord	 0000031D _DATA	
period_spaces  . . . . . . . . .	Byte	 000001DA _DATA	
prompt_01  . . . . . . . . . . .	Byte	 000000B3 _DATA	
prompt_02  . . . . . . . . . . .	Byte	 000000D8 _DATA	
prompt_03  . . . . . . . . . . .	Byte	 0000010A _DATA	
red  . . . . . . . . . . . . . .	Number	 00000004h   
result_01  . . . . . . . . . . .	Byte	 0000014B _DATA	
result_02  . . . . . . . . . . .	Byte	 00000169 _DATA	
result_03  . . . . . . . . . . .	Byte	 00000189 _DATA	
string_buf . . . . . . . . . . .	Byte	 000002F5 _DATA	
sum  . . . . . . . . . . . . . .	DWord	 00000315 _DATA	
temp_sum . . . . . . . . . . . .	Byte	 000001E1 _DATA	
user_Name  . . . . . . . . . . .	Byte	 00000345 _DATA	
white  . . . . . . . . . . . . .	Number	 0000000Fh   
wsprintf . . . . . . . . . . . .	Text   	 wsprintfA
yellow . . . . . . . . . . . . .	Number	 0000000Eh   

	   0 Warnings
	   0 Errors
